%YAML 1.1
%TAG !u! tag:unity3d.com,2011:
--- !u!687078895 &4343727234628468602
SpriteAtlas:
  m_ObjectHideFlags: 0
  m_CorrespondingSourceObject: {fileID: 0}
  m_PrefabInstance: {fileID: 0}
  m_PrefabAsset: {fileID: 0}
  m_Name: finalTileset
  m_EditorData:
    serializedVersion: 2
    textureSettings:
      serializedVersion: 2
      anisoLevel: 1
      compressionQuality: 50
      maxTextureSize: 2048
      textureCompression: 0
      filterMode: 1
      generateMipMaps: 0
      readable: 0
      crunchedCompression: 0
      sRGB: 1
    platformSettings: []
    packingSettings:
      serializedVersion: 2
      padding: 4
      blockOffset: 1
      allowAlphaSplitting: 0
      enableRotation: 1
      enableTightPacking: 1
    variantMultiplier: 1
    packables:
    - {fileID: 2800000, guid: f1ac1a383a37bf34486c29352087435c, type: 3}
    totalSpriteSurfaceArea: 92160
    bindAsDefault: 1
    isAtlasV2: 0
    cachedData: {fileID: 0}
  m_MasterAtlas: {fileID: 0}
  m_PackedSprites:
  - {fileID: -7502597127955543135, guid: f1ac1a383a37bf34486c29352087435c, type: 3}
  - {fileID: 8729726842171907365, guid: f1ac1a383a37bf34486c29352087435c, type: 3}
  - {fileID: 7971696886899454054, guid: f1ac1a383a37bf34486c29352087435c, type: 3}
  - {fileID: 4366375317780246848, guid: f1ac1a383a37bf34486c29352087435c, type: 3}
  - {fileID: 5435270646984078426, guid: f1ac1a383a37bf34486c29352087435c, type: 3}
  - {fileID: 1947119457985424567, guid: f1ac1a383a37bf34486c29352087435c, type: 3}
  - {fileID: -1918595415228155771, guid: f1ac1a383a37bf34486c29352087435c, type: 3}
  - {fileID: 9019084331434506844, guid: f1ac1a383a37bf34486c29352087435c, type: 3}
  - {fileID: -8277343293751269970, guid: f1ac1a383a37bf34486c29352087435c, type: 3}
  - {fileID: 3544260631447802459, guid: f1ac1a383a37bf34486c29352087435c, type: 3}
  - {fileID: -3116244873542273036, guid: f1ac1a383a37bf34486c29352087435c, type: 3}
  - {fileID: 1276016915113357176, guid: f1ac1a383a37bf34486c29352087435c, type: 3}
  - {fileID: 3122985742603172977, guid: f1ac1a383a37bf34486c29352087435c, type: 3}
  - {fileID: -165524118171234062, guid: f1ac1a383a37bf34486c29352087435c, type: 3}
  - {fileID: -3561881069427453975, guid: f1ac1a383a37bf34486c29352087435c, type: 3}
  - {fileID: 7675704318700981045, guid: f1ac1a383a37bf34486c29352087435c, type: 3}
  - {fileID: 1192302938602655290, guid: f1ac1a383a37bf34486c29352087435c, type: 3}
  - {fileID: 1510795872583534060, guid: f1ac1a383a37bf34486c29352087435c, type: 3}
  - {fileID: -4794531747358747101, guid: f1ac1a383a37bf34486c29352087435c, type: 3}
  - {fileID: -3126655567708443489, guid: f1ac1a383a37bf34486c29352087435c, type: 3}
  - {fileID: 1940554413578133321, guid: f1ac1a383a37bf34486c29352087435c, type: 3}
  - {fileID: -2679776680757644774, guid: f1ac1a383a37bf34486c29352087435c, type: 3}
  - {fileID: -4498894146555434900, guid: f1ac1a383a37bf34486c29352087435c, type: 3}
  - {fileID: 1569870214592278962, guid: f1ac1a383a37bf34486c29352087435c, type: 3}
  - {fileID: -4349138457683986220, guid: f1ac1a383a37bf34486c29352087435c, type: 3}
  - {fileID: 8074047908597030931, guid: f1ac1a383a37bf34486c29352087435c, type: 3}
  - {fileID: -6949940687335692792, guid: f1ac1a383a37bf34486c29352087435c, type: 3}
  - {fileID: -8488844344413893225, guid: f1ac1a383a37bf34486c29352087435c, type: 3}
  - {fileID: 7275632282209467027, guid: f1ac1a383a37bf34486c29352087435c, type: 3}
  - {fileID: 9092034087193874854, guid: f1ac1a383a37bf34486c29352087435c, type: 3}
  - {fileID: 6387270009084236526, guid: f1ac1a383a37bf34486c29352087435c, type: 3}
  - {fileID: -5690439865084057728, guid: f1ac1a383a37bf34486c29352087435c, type: 3}
  - {fileID: 4106614369192998497, guid: f1ac1a383a37bf34486c29352087435c, type: 3}
  - {fileID: -1573659645009963736, guid: f1ac1a383a37bf34486c29352087435c, type: 3}
  - {fileID: 3631185631560381419, guid: f1ac1a383a37bf34486c29352087435c, type: 3}
  - {fileID: -773731397736204555, guid: f1ac1a383a37bf34486c29352087435c, type: 3}
  - {fileID: -189096374059548865, guid: f1ac1a383a37bf34486c29352087435c, type: 3}
  - {fileID: -1503501613860420936, guid: f1ac1a383a37bf34486c29352087435c, type: 3}
  - {fileID: -4691537503504639314, guid: f1ac1a383a37bf34486c29352087435c, type: 3}
  - {fileID: 7802577669143822685, guid: f1ac1a383a37bf34486c29352087435c, type: 3}
  - {fileID: -8510111550988930174, guid: f1ac1a383a37bf34486c29352087435c, type: 3}
  - {fileID: -41748860053788470, guid: f1ac1a383a37bf34486c29352087435c, type: 3}
  - {fileID: -5580820881759664538, guid: f1ac1a383a37bf34486c29352087435c, type: 3}
  - {fileID: 5358963854916663975, guid: f1ac1a383a37bf34486c29352087435c, type: 3}
  - {fileID: -5279810998992384470, guid: f1ac1a383a37bf34486c29352087435c, type: 3}
  - {fileID: -951538665276321423, guid: f1ac1a383a37bf34486c29352087435c, type: 3}
  - {fileID: -8618224483310450548, guid: f1ac1a383a37bf34486c29352087435c, type: 3}
  - {fileID: 4379329034887140437, guid: f1ac1a383a37bf34486c29352087435c, type: 3}
  - {fileID: -3394412262967180644, guid: f1ac1a383a37bf34486c29352087435c, type: 3}
  - {fileID: 7461374090061933719, guid: f1ac1a383a37bf34486c29352087435c, type: 3}
  - {fileID: 8207216086063867140, guid: f1ac1a383a37bf34486c29352087435c, type: 3}
  - {fileID: -923938995664315266, guid: f1ac1a383a37bf34486c29352087435c, type: 3}
  - {fileID: 6742135556669391769, guid: f1ac1a383a37bf34486c29352087435c, type: 3}
  - {fileID: -4912440524543851709, guid: f1ac1a383a37bf34486c29352087435c, type: 3}
  - {fileID: -4319001177026117963, guid: f1ac1a383a37bf34486c29352087435c, type: 3}
  - {fileID: 2176108418869935550, guid: f1ac1a383a37bf34486c29352087435c, type: 3}
  - {fileID: -115530371289130693, guid: f1ac1a383a37bf34486c29352087435c, type: 3}
  - {fileID: -6177437623713830656, guid: f1ac1a383a37bf34486c29352087435c, type: 3}
  - {fileID: 6025426771120414415, guid: f1ac1a383a37bf34486c29352087435c, type: 3}
  - {fileID: -1936499267308027771, guid: f1ac1a383a37bf34486c29352087435c, type: 3}
  - {fileID: 1947959413183944149, guid: f1ac1a383a37bf34486c29352087435c, type: 3}
  - {fileID: -6595907360901831026, guid: f1ac1a383a37bf34486c29352087435c, type: 3}
  - {fileID: 54114117149802668, guid: f1ac1a383a37bf34486c29352087435c, type: 3}
  - {fileID: -4858588312110959394, guid: f1ac1a383a37bf34486c29352087435c, type: 3}
  - {fileID: 3031948473498817550, guid: f1ac1a383a37bf34486c29352087435c, type: 3}
  - {fileID: -3908050686021176017, guid: f1ac1a383a37bf34486c29352087435c, type: 3}
  - {fileID: -1896775738594830653, guid: f1ac1a383a37bf34486c29352087435c, type: 3}
  - {fileID: 3575842042948658371, guid: f1ac1a383a37bf34486c29352087435c, type: 3}
  - {fileID: 6358380506429797311, guid: f1ac1a383a37bf34486c29352087435c, type: 3}
  - {fileID: 6875446292438248510, guid: f1ac1a383a37bf34486c29352087435c, type: 3}
  - {fileID: -2288624535387305711, guid: f1ac1a383a37bf34486c29352087435c, type: 3}
  - {fileID: 3213837164921476195, guid: f1ac1a383a37bf34486c29352087435c, type: 3}
  - {fileID: -7465504118026647073, guid: f1ac1a383a37bf34486c29352087435c, type: 3}
  - {fileID: -8638580351052305460, guid: f1ac1a383a37bf34486c29352087435c, type: 3}
  - {fileID: -6915864423205654173, guid: f1ac1a383a37bf34486c29352087435c, type: 3}
  - {fileID: -3754490414935352970, guid: f1ac1a383a37bf34486c29352087435c, type: 3}
  - {fileID: -3144493612875755829, guid: f1ac1a383a37bf34486c29352087435c, type: 3}
  - {fileID: 6410632171222080088, guid: f1ac1a383a37bf34486c29352087435c, type: 3}
  - {fileID: 7472236926219913571, guid: f1ac1a383a37bf34486c29352087435c, type: 3}
  - {fileID: 4487023333714816258, guid: f1ac1a383a37bf34486c29352087435c, type: 3}
  - {fileID: 7054702437079160464, guid: f1ac1a383a37bf34486c29352087435c, type: 3}
  - {fileID: 3033623811905015857, guid: f1ac1a383a37bf34486c29352087435c, type: 3}
  - {fileID: 8474265140585571280, guid: f1ac1a383a37bf34486c29352087435c, type: 3}
  - {fileID: -964268487688491331, guid: f1ac1a383a37bf34486c29352087435c, type: 3}
  - {fileID: -4218015735609788400, guid: f1ac1a383a37bf34486c29352087435c, type: 3}
  - {fileID: 2233181356254686728, guid: f1ac1a383a37bf34486c29352087435c, type: 3}
  - {fileID: -8236973135019218483, guid: f1ac1a383a37bf34486c29352087435c, type: 3}
  - {fileID: -4979020444189382025, guid: f1ac1a383a37bf34486c29352087435c, type: 3}
  - {fileID: 8031246995570197784, guid: f1ac1a383a37bf34486c29352087435c, type: 3}
  - {fileID: -837813247946590863, guid: f1ac1a383a37bf34486c29352087435c, type: 3}
  m_PackedSpriteNamesToIndex:
  - FINAL_70
  - FINAL_73
  - FINAL_72
  - FINAL_8
  - FINAL_9
  - FINAL_0
  - FINAL_1
  - FINAL_2
  - FINAL_3
  - FINAL_4
  - FINAL_5
  - FINAL_6
  - FINAL_7
  - FINAL_31
  - FINAL_30
  - FINAL_33
  - FINAL_32
  - FINAL_35
  - FINAL_34
  - FINAL_37
  - FINAL_36
  - FINAL_39
  - FINAL_38
  - FINAL_19
  - FINAL_18
  - FINAL_13
  - FINAL_12
  - FINAL_28
  - FINAL_11
  - FINAL_29
  - FINAL_10
  - FINAL_26
  - FINAL_17
  - FINAL_27
  - FINAL_16
  - FINAL_24
  - FINAL_15
  - FINAL_25
  - FINAL_14
  - FINAL_22
  - FINAL_23
  - FINAL_20
  - FINAL_21
  - FINAL_80
  - FINAL_81
  - FINAL_82
  - FINAL_83
  - FINAL_84
  - FINAL_44
  - FINAL_85
  - FINAL_45
  - FINAL_86
  - FINAL_46
  - FINAL_87
  - FINAL_47
  - FINAL_57
  - FINAL_88
  - FINAL_40
  - FINAL_56
  - FINAL_89
  - FINAL_41
  - FINAL_55
  - FINAL_42
  - FINAL_54
  - FINAL_43
  - FINAL_53
  - FINAL_52
  - FINAL_68
  - FINAL_51
  - FINAL_69
  - FINAL_50
  - FINAL_48
  - FINAL_49
  - FINAL_79
  - FINAL_62
  - FINAL_78
  - FINAL_63
  - FINAL_60
  - FINAL_59
  - FINAL_61
  - FINAL_75
  - FINAL_58
  - FINAL_66
  - FINAL_74
  - FINAL_67
  - FINAL_77
  - FINAL_64
  - FINAL_76
  - FINAL_65
  - FINAL_71
  m_Tag: finalTileset
  m_IsVariant: 0
