%YAML 1.1
%TAG !u! tag:unity3d.com,2011:
--- !u!1 &6156335109127568394
GameObject:
  m_ObjectHideFlags: 0
  m_CorrespondingSourceObject: {fileID: 0}
  m_PrefabInstance: {fileID: 0}
  m_PrefabAsset: {fileID: 0}
  serializedVersion: 6
  m_Component:
  - component: {fileID: 3700764168686636285}
  - component: {fileID: 4672938938299287817}
  - component: {fileID: 3447005074753728953}
  m_Layer: 0
  m_Name: Layer1
  m_TagString: Untagged
  m_Icon: {fileID: 0}
  m_NavMeshLayer: 0
  m_StaticEditorFlags: 0
  m_IsActive: 1
--- !u!4 &3700764168686636285
Transform:
  m_ObjectHideFlags: 0
  m_CorrespondingSourceObject: {fileID: 0}
  m_PrefabInstance: {fileID: 0}
  m_PrefabAsset: {fileID: 0}
  m_GameObject: {fileID: 6156335109127568394}
  m_LocalRotation: {x: -0, y: -0, z: -0, w: 1}
  m_LocalPosition: {x: 0, y: 0, z: 0}
  m_LocalScale: {x: 1, y: 1, z: 1}
  m_Children: []
  m_Father: {fileID: 9008478063621980066}
  m_RootOrder: 0
  m_LocalEulerAnglesHint: {x: 0, y: 0, z: 0}
--- !u!1839735485 &4672938938299287817
Tilemap:
  m_ObjectHideFlags: 0
  m_CorrespondingSourceObject: {fileID: 0}
  m_PrefabInstance: {fileID: 0}
  m_PrefabAsset: {fileID: 0}
  m_GameObject: {fileID: 6156335109127568394}
  m_Enabled: 1
  m_Tiles:
  - first: {x: -1, y: -9, z: 0}
    second:
      serializedVersion: 2
      m_TileIndex: 74
      m_TileSpriteIndex: 74
      m_TileMatrixIndex: 0
      m_TileColorIndex: 0
      m_TileObjectToInstantiateIndex: 65535
      m_AllTileFlags: 1073741825
  - first: {x: 0, y: -9, z: 0}
    second:
      serializedVersion: 2
      m_TileIndex: 75
      m_TileSpriteIndex: 75
      m_TileMatrixIndex: 0
      m_TileColorIndex: 0
      m_TileObjectToInstantiateIndex: 65535
      m_AllTileFlags: 1073741825
  - first: {x: 4, y: -9, z: 0}
    second:
      serializedVersion: 2
      m_TileIndex: 76
      m_TileSpriteIndex: 76
      m_TileMatrixIndex: 0
      m_TileColorIndex: 0
      m_TileObjectToInstantiateIndex: 65535
      m_AllTileFlags: 1073741825
  - first: {x: 5, y: -9, z: 0}
    second:
      serializedVersion: 2
      m_TileIndex: 77
      m_TileSpriteIndex: 77
      m_TileMatrixIndex: 0
      m_TileColorIndex: 0
      m_TileObjectToInstantiateIndex: 65535
      m_AllTileFlags: 1073741825
  - first: {x: 6, y: -9, z: 0}
    second:
      serializedVersion: 2
      m_TileIndex: 78
      m_TileSpriteIndex: 78
      m_TileMatrixIndex: 0
      m_TileColorIndex: 0
      m_TileObjectToInstantiateIndex: 65535
      m_AllTileFlags: 1073741825
  - first: {x: 7, y: -9, z: 0}
    second:
      serializedVersion: 2
      m_TileIndex: 79
      m_TileSpriteIndex: 79
      m_TileMatrixIndex: 0
      m_TileColorIndex: 0
      m_TileObjectToInstantiateIndex: 65535
      m_AllTileFlags: 1073741825
  - first: {x: 8, y: -9, z: 0}
    second:
      serializedVersion: 2
      m_TileIndex: 80
      m_TileSpriteIndex: 80
      m_TileMatrixIndex: 0
      m_TileColorIndex: 0
      m_TileObjectToInstantiateIndex: 65535
      m_AllTileFlags: 1073741825
  - first: {x: 0, y: -8, z: 0}
    second:
      serializedVersion: 2
      m_TileIndex: 67
      m_TileSpriteIndex: 67
      m_TileMatrixIndex: 0
      m_TileColorIndex: 0
      m_TileObjectToInstantiateIndex: 65535
      m_AllTileFlags: 1073741825
  - first: {x: 1, y: -8, z: 0}
    second:
      serializedVersion: 2
      m_TileIndex: 68
      m_TileSpriteIndex: 68
      m_TileMatrixIndex: 0
      m_TileColorIndex: 0
      m_TileObjectToInstantiateIndex: 65535
      m_AllTileFlags: 1073741825
  - first: {x: 4, y: -8, z: 0}
    second:
      serializedVersion: 2
      m_TileIndex: 69
      m_TileSpriteIndex: 69
      m_TileMatrixIndex: 0
      m_TileColorIndex: 0
      m_TileObjectToInstantiateIndex: 65535
      m_AllTileFlags: 1073741825
  - first: {x: 5, y: -8, z: 0}
    second:
      serializedVersion: 2
      m_TileIndex: 70
      m_TileSpriteIndex: 70
      m_TileMatrixIndex: 0
      m_TileColorIndex: 0
      m_TileObjectToInstantiateIndex: 65535
      m_AllTileFlags: 1073741825
  - first: {x: 6, y: -8, z: 0}
    second:
      serializedVersion: 2
      m_TileIndex: 71
      m_TileSpriteIndex: 71
      m_TileMatrixIndex: 0
      m_TileColorIndex: 0
      m_TileObjectToInstantiateIndex: 65535
      m_AllTileFlags: 1073741825
  - first: {x: 7, y: -8, z: 0}
    second:
      serializedVersion: 2
      m_TileIndex: 72
      m_TileSpriteIndex: 72
      m_TileMatrixIndex: 0
      m_TileColorIndex: 0
      m_TileObjectToInstantiateIndex: 65535
      m_AllTileFlags: 1073741825
  - first: {x: 8, y: -8, z: 0}
    second:
      serializedVersion: 2
      m_TileIndex: 73
      m_TileSpriteIndex: 73
      m_TileMatrixIndex: 0
      m_TileColorIndex: 0
      m_TileObjectToInstantiateIndex: 65535
      m_AllTileFlags: 1073741825
  - first: {x: 0, y: -7, z: 0}
    second:
      serializedVersion: 2
      m_TileIndex: 58
      m_TileSpriteIndex: 58
      m_TileMatrixIndex: 0
      m_TileColorIndex: 0
      m_TileObjectToInstantiateIndex: 65535
      m_AllTileFlags: 1073741825
  - first: {x: 1, y: -7, z: 0}
    second:
      serializedVersion: 2
      m_TileIndex: 59
      m_TileSpriteIndex: 59
      m_TileMatrixIndex: 0
      m_TileColorIndex: 0
      m_TileObjectToInstantiateIndex: 65535
      m_AllTileFlags: 1073741825
  - first: {x: 2, y: -7, z: 0}
    second:
      serializedVersion: 2
      m_TileIndex: 60
      m_TileSpriteIndex: 60
      m_TileMatrixIndex: 0
      m_TileColorIndex: 0
      m_TileObjectToInstantiateIndex: 65535
      m_AllTileFlags: 1073741825
  - first: {x: 3, y: -7, z: 0}
    second:
      serializedVersion: 2
      m_TileIndex: 61
      m_TileSpriteIndex: 61
      m_TileMatrixIndex: 0
      m_TileColorIndex: 0
      m_TileObjectToInstantiateIndex: 65535
      m_AllTileFlags: 1073741825
  - first: {x: 4, y: -7, z: 0}
    second:
      serializedVersion: 2
      m_TileIndex: 62
      m_TileSpriteIndex: 62
      m_TileMatrixIndex: 0
      m_TileColorIndex: 0
      m_TileObjectToInstantiateIndex: 65535
      m_AllTileFlags: 1073741825
  - first: {x: 5, y: -7, z: 0}
    second:
      serializedVersion: 2
      m_TileIndex: 63
      m_TileSpriteIndex: 63
      m_TileMatrixIndex: 0
      m_TileColorIndex: 0
      m_TileObjectToInstantiateIndex: 65535
      m_AllTileFlags: 1073741825
  - first: {x: 6, y: -7, z: 0}
    second:
      serializedVersion: 2
      m_TileIndex: 64
      m_TileSpriteIndex: 64
      m_TileMatrixIndex: 0
      m_TileColorIndex: 0
      m_TileObjectToInstantiateIndex: 65535
      m_AllTileFlags: 1073741825
  - first: {x: 7, y: -7, z: 0}
    second:
      serializedVersion: 2
      m_TileIndex: 65
      m_TileSpriteIndex: 65
      m_TileMatrixIndex: 0
      m_TileColorIndex: 0
      m_TileObjectToInstantiateIndex: 65535
      m_AllTileFlags: 1073741825
  - first: {x: 8, y: -7, z: 0}
    second:
      serializedVersion: 2
      m_TileIndex: 66
      m_TileSpriteIndex: 66
      m_TileMatrixIndex: 0
      m_TileColorIndex: 0
      m_TileObjectToInstantiateIndex: 65535
      m_AllTileFlags: 1073741825
  - first: {x: 0, y: -6, z: 0}
    second:
      serializedVersion: 2
      m_TileIndex: 49
      m_TileSpriteIndex: 49
      m_TileMatrixIndex: 0
      m_TileColorIndex: 0
      m_TileObjectToInstantiateIndex: 65535
      m_AllTileFlags: 1073741825
  - first: {x: 1, y: -6, z: 0}
    second:
      serializedVersion: 2
      m_TileIndex: 50
      m_TileSpriteIndex: 50
      m_TileMatrixIndex: 0
      m_TileColorIndex: 0
      m_TileObjectToInstantiateIndex: 65535
      m_AllTileFlags: 1073741825
  - first: {x: 2, y: -6, z: 0}
    second:
      serializedVersion: 2
      m_TileIndex: 51
      m_TileSpriteIndex: 51
      m_TileMatrixIndex: 0
      m_TileColorIndex: 0
      m_TileObjectToInstantiateIndex: 65535
      m_AllTileFlags: 1073741825
  - first: {x: 3, y: -6, z: 0}
    second:
      serializedVersion: 2
      m_TileIndex: 52
      m_TileSpriteIndex: 52
      m_TileMatrixIndex: 0
      m_TileColorIndex: 0
      m_TileObjectToInstantiateIndex: 65535
      m_AllTileFlags: 1073741825
  - first: {x: 4, y: -6, z: 0}
    second:
      serializedVersion: 2
      m_TileIndex: 53
      m_TileSpriteIndex: 53
      m_TileMatrixIndex: 0
      m_TileColorIndex: 0
      m_TileObjectToInstantiateIndex: 65535
      m_AllTileFlags: 1073741825
  - first: {x: 5, y: -6, z: 0}
    second:
      serializedVersion: 2
      m_TileIndex: 54
      m_TileSpriteIndex: 54
      m_TileMatrixIndex: 0
      m_TileColorIndex: 0
      m_TileObjectToInstantiateIndex: 65535
      m_AllTileFlags: 1073741825
  - first: {x: 6, y: -6, z: 0}
    second:
      serializedVersion: 2
      m_TileIndex: 55
      m_TileSpriteIndex: 55
      m_TileMatrixIndex: 0
      m_TileColorIndex: 0
      m_TileObjectToInstantiateIndex: 65535
      m_AllTileFlags: 1073741825
  - first: {x: 7, y: -6, z: 0}
    second:
      serializedVersion: 2
      m_TileIndex: 56
      m_TileSpriteIndex: 56
      m_TileMatrixIndex: 0
      m_TileColorIndex: 0
      m_TileObjectToInstantiateIndex: 65535
      m_AllTileFlags: 1073741825
  - first: {x: 8, y: -6, z: 0}
    second:
      serializedVersion: 2
      m_TileIndex: 57
      m_TileSpriteIndex: 57
      m_TileMatrixIndex: 0
      m_TileColorIndex: 0
      m_TileObjectToInstantiateIndex: 65535
      m_AllTileFlags: 1073741825
  - first: {x: 2, y: -5, z: 0}
    second:
      serializedVersion: 2
      m_TileIndex: 42
      m_TileSpriteIndex: 42
      m_TileMatrixIndex: 0
      m_TileColorIndex: 0
      m_TileObjectToInstantiateIndex: 65535
      m_AllTileFlags: 1073741825
  - first: {x: 3, y: -5, z: 0}
    second:
      serializedVersion: 2
      m_TileIndex: 43
      m_TileSpriteIndex: 43
      m_TileMatrixIndex: 0
      m_TileColorIndex: 0
      m_TileObjectToInstantiateIndex: 65535
      m_AllTileFlags: 1073741825
  - first: {x: 4, y: -5, z: 0}
    second:
      serializedVersion: 2
      m_TileIndex: 44
      m_TileSpriteIndex: 44
      m_TileMatrixIndex: 0
      m_TileColorIndex: 0
      m_TileObjectToInstantiateIndex: 65535
      m_AllTileFlags: 1073741825
  - first: {x: 5, y: -5, z: 0}
    second:
      serializedVersion: 2
      m_TileIndex: 45
      m_TileSpriteIndex: 45
      m_TileMatrixIndex: 0
      m_TileColorIndex: 0
      m_TileObjectToInstantiateIndex: 65535
      m_AllTileFlags: 1073741825
  - first: {x: 6, y: -5, z: 0}
    second:
      serializedVersion: 2
      m_TileIndex: 46
      m_TileSpriteIndex: 46
      m_TileMatrixIndex: 0
      m_TileColorIndex: 0
      m_TileObjectToInstantiateIndex: 65535
      m_AllTileFlags: 1073741825
  - first: {x: 7, y: -5, z: 0}
    second:
      serializedVersion: 2
      m_TileIndex: 47
      m_TileSpriteIndex: 47
      m_TileMatrixIndex: 0
      m_TileColorIndex: 0
      m_TileObjectToInstantiateIndex: 65535
      m_AllTileFlags: 1073741825
  - first: {x: 8, y: -5, z: 0}
    second:
      serializedVersion: 2
      m_TileIndex: 48
      m_TileSpriteIndex: 48
      m_TileMatrixIndex: 0
      m_TileColorIndex: 0
      m_TileObjectToInstantiateIndex: 65535
      m_AllTileFlags: 1073741825
  - first: {x: -1, y: -4, z: 0}
    second:
      serializedVersion: 2
      m_TileIndex: 32
      m_TileSpriteIndex: 32
      m_TileMatrixIndex: 0
      m_TileColorIndex: 0
      m_TileObjectToInstantiateIndex: 65535
      m_AllTileFlags: 1073741825
  - first: {x: 0, y: -4, z: 0}
    second:
      serializedVersion: 2
      m_TileIndex: 33
      m_TileSpriteIndex: 33
      m_TileMatrixIndex: 0
      m_TileColorIndex: 0
      m_TileObjectToInstantiateIndex: 65535
      m_AllTileFlags: 1073741825
  - first: {x: 1, y: -4, z: 0}
    second:
      serializedVersion: 2
      m_TileIndex: 34
      m_TileSpriteIndex: 34
      m_TileMatrixIndex: 0
      m_TileColorIndex: 0
      m_TileObjectToInstantiateIndex: 65535
      m_AllTileFlags: 1073741825
  - first: {x: 2, y: -4, z: 0}
    second:
      serializedVersion: 2
      m_TileIndex: 35
      m_TileSpriteIndex: 35
      m_TileMatrixIndex: 0
      m_TileColorIndex: 0
      m_TileObjectToInstantiateIndex: 65535
      m_AllTileFlags: 1073741825
  - first: {x: 3, y: -4, z: 0}
    second:
      serializedVersion: 2
      m_TileIndex: 36
      m_TileSpriteIndex: 36
      m_TileMatrixIndex: 0
      m_TileColorIndex: 0
      m_TileObjectToInstantiateIndex: 65535
      m_AllTileFlags: 1073741825
  - first: {x: 4, y: -4, z: 0}
    second:
      serializedVersion: 2
      m_TileIndex: 37
      m_TileSpriteIndex: 37
      m_TileMatrixIndex: 0
      m_TileColorIndex: 0
      m_TileObjectToInstantiateIndex: 65535
      m_AllTileFlags: 1073741825
  - first: {x: 5, y: -4, z: 0}
    second:
      serializedVersion: 2
      m_TileIndex: 38
      m_TileSpriteIndex: 38
      m_TileMatrixIndex: 0
      m_TileColorIndex: 0
      m_TileObjectToInstantiateIndex: 65535
      m_AllTileFlags: 1073741825
  - first: {x: 6, y: -4, z: 0}
    second:
      serializedVersion: 2
      m_TileIndex: 39
      m_TileSpriteIndex: 39
      m_TileMatrixIndex: 0
      m_TileColorIndex: 0
      m_TileObjectToInstantiateIndex: 65535
      m_AllTileFlags: 1073741825
  - first: {x: 7, y: -4, z: 0}
    second:
      serializedVersion: 2
      m_TileIndex: 40
      m_TileSpriteIndex: 40
      m_TileMatrixIndex: 0
      m_TileColorIndex: 0
      m_TileObjectToInstantiateIndex: 65535
      m_AllTileFlags: 1073741825
  - first: {x: 8, y: -4, z: 0}
    second:
      serializedVersion: 2
      m_TileIndex: 41
      m_TileSpriteIndex: 41
      m_TileMatrixIndex: 0
      m_TileColorIndex: 0
      m_TileObjectToInstantiateIndex: 65535
      m_AllTileFlags: 1073741825
  - first: {x: 1, y: -3, z: 0}
    second:
      serializedVersion: 2
      m_TileIndex: 24
      m_TileSpriteIndex: 24
      m_TileMatrixIndex: 0
      m_TileColorIndex: 0
      m_TileObjectToInstantiateIndex: 65535
      m_AllTileFlags: 1073741825
  - first: {x: 2, y: -3, z: 0}
    second:
      serializedVersion: 2
      m_TileIndex: 25
      m_TileSpriteIndex: 25
      m_TileMatrixIndex: 0
      m_TileColorIndex: 0
      m_TileObjectToInstantiateIndex: 65535
      m_AllTileFlags: 1073741825
  - first: {x: 3, y: -3, z: 0}
    second:
      serializedVersion: 2
      m_TileIndex: 26
      m_TileSpriteIndex: 26
      m_TileMatrixIndex: 0
      m_TileColorIndex: 0
      m_TileObjectToInstantiateIndex: 65535
      m_AllTileFlags: 1073741825
  - first: {x: 4, y: -3, z: 0}
    second:
      serializedVersion: 2
      m_TileIndex: 27
      m_TileSpriteIndex: 27
      m_TileMatrixIndex: 0
      m_TileColorIndex: 0
      m_TileObjectToInstantiateIndex: 65535
      m_AllTileFlags: 1073741825
  - first: {x: 5, y: -3, z: 0}
    second:
      serializedVersion: 2
      m_TileIndex: 28
      m_TileSpriteIndex: 28
      m_TileMatrixIndex: 0
      m_TileColorIndex: 0
      m_TileObjectToInstantiateIndex: 65535
      m_AllTileFlags: 1073741825
  - first: {x: 6, y: -3, z: 0}
    second:
      serializedVersion: 2
      m_TileIndex: 29
      m_TileSpriteIndex: 29
      m_TileMatrixIndex: 0
      m_TileColorIndex: 0
      m_TileObjectToInstantiateIndex: 65535
      m_AllTileFlags: 1073741825
  - first: {x: 7, y: -3, z: 0}
    second:
      serializedVersion: 2
      m_TileIndex: 30
      m_TileSpriteIndex: 30
      m_TileMatrixIndex: 0
      m_TileColorIndex: 0
      m_TileObjectToInstantiateIndex: 65535
      m_AllTileFlags: 1073741825
  - first: {x: 8, y: -3, z: 0}
    second:
      serializedVersion: 2
      m_TileIndex: 31
      m_TileSpriteIndex: 31
      m_TileMatrixIndex: 0
      m_TileColorIndex: 0
      m_TileObjectToInstantiateIndex: 65535
      m_AllTileFlags: 1073741825
  - first: {x: -1, y: -2, z: 0}
    second:
      serializedVersion: 2
      m_TileIndex: 15
      m_TileSpriteIndex: 15
      m_TileMatrixIndex: 0
      m_TileColorIndex: 0
      m_TileObjectToInstantiateIndex: 65535
      m_AllTileFlags: 1073741825
  - first: {x: 1, y: -2, z: 0}
    second:
      serializedVersion: 2
      m_TileIndex: 16
      m_TileSpriteIndex: 16
      m_TileMatrixIndex: 0
      m_TileColorIndex: 0
      m_TileObjectToInstantiateIndex: 65535
      m_AllTileFlags: 1073741825
  - first: {x: 2, y: -2, z: 0}
    second:
      serializedVersion: 2
      m_TileIndex: 17
      m_TileSpriteIndex: 17
      m_TileMatrixIndex: 0
      m_TileColorIndex: 0
      m_TileObjectToInstantiateIndex: 65535
      m_AllTileFlags: 1073741825
  - first: {x: 3, y: -2, z: 0}
    second:
      serializedVersion: 2
      m_TileIndex: 18
      m_TileSpriteIndex: 18
      m_TileMatrixIndex: 0
      m_TileColorIndex: 0
      m_TileObjectToInstantiateIndex: 65535
      m_AllTileFlags: 1073741825
  - first: {x: 4, y: -2, z: 0}
    second:
      serializedVersion: 2
      m_TileIndex: 19
      m_TileSpriteIndex: 19
      m_TileMatrixIndex: 0
      m_TileColorIndex: 0
      m_TileObjectToInstantiateIndex: 65535
      m_AllTileFlags: 1073741825
  - first: {x: 5, y: -2, z: 0}
    second:
      serializedVersion: 2
      m_TileIndex: 20
      m_TileSpriteIndex: 20
      m_TileMatrixIndex: 0
      m_TileColorIndex: 0
      m_TileObjectToInstantiateIndex: 65535
      m_AllTileFlags: 1073741825
  - first: {x: 6, y: -2, z: 0}
    second:
      serializedVersion: 2
      m_TileIndex: 21
      m_TileSpriteIndex: 21
      m_TileMatrixIndex: 0
      m_TileColorIndex: 0
      m_TileObjectToInstantiateIndex: 65535
      m_AllTileFlags: 1073741825
  - first: {x: 7, y: -2, z: 0}
    second:
      serializedVersion: 2
      m_TileIndex: 22
      m_TileSpriteIndex: 22
      m_TileMatrixIndex: 0
      m_TileColorIndex: 0
      m_TileObjectToInstantiateIndex: 65535
      m_AllTileFlags: 1073741825
  - first: {x: 8, y: -2, z: 0}
    second:
      serializedVersion: 2
      m_TileIndex: 23
      m_TileSpriteIndex: 23
      m_TileMatrixIndex: 0
      m_TileColorIndex: 0
      m_TileObjectToInstantiateIndex: 65535
      m_AllTileFlags: 1073741825
  - first: {x: -1, y: -1, z: 0}
    second:
      serializedVersion: 2
      m_TileIndex: 7
      m_TileSpriteIndex: 7
      m_TileMatrixIndex: 0
      m_TileColorIndex: 0
      m_TileObjectToInstantiateIndex: 65535
      m_AllTileFlags: 1073741825
  - first: {x: 2, y: -1, z: 0}
    second:
      serializedVersion: 2
      m_TileIndex: 8
      m_TileSpriteIndex: 8
      m_TileMatrixIndex: 0
      m_TileColorIndex: 0
      m_TileObjectToInstantiateIndex: 65535
      m_AllTileFlags: 1073741825
  - first: {x: 3, y: -1, z: 0}
    second:
      serializedVersion: 2
      m_TileIndex: 9
      m_TileSpriteIndex: 9
      m_TileMatrixIndex: 0
      m_TileColorIndex: 0
      m_TileObjectToInstantiateIndex: 65535
      m_AllTileFlags: 1073741825
  - first: {x: 4, y: -1, z: 0}
    second:
      serializedVersion: 2
      m_TileIndex: 10
      m_TileSpriteIndex: 10
      m_TileMatrixIndex: 0
      m_TileColorIndex: 0
      m_TileObjectToInstantiateIndex: 65535
      m_AllTileFlags: 1073741825
  - first: {x: 5, y: -1, z: 0}
    second:
      serializedVersion: 2
      m_TileIndex: 11
      m_TileSpriteIndex: 11
      m_TileMatrixIndex: 0
      m_TileColorIndex: 0
      m_TileObjectToInstantiateIndex: 65535
      m_AllTileFlags: 1073741825
  - first: {x: 6, y: -1, z: 0}
    second:
      serializedVersion: 2
      m_TileIndex: 12
      m_TileSpriteIndex: 12
      m_TileMatrixIndex: 0
      m_TileColorIndex: 0
      m_TileObjectToInstantiateIndex: 65535
      m_AllTileFlags: 1073741825
  - first: {x: 7, y: -1, z: 0}
    second:
      serializedVersion: 2
      m_TileIndex: 13
      m_TileSpriteIndex: 13
      m_TileMatrixIndex: 0
      m_TileColorIndex: 0
      m_TileObjectToInstantiateIndex: 65535
      m_AllTileFlags: 1073741825
  - first: {x: 8, y: -1, z: 0}
    second:
      serializedVersion: 2
      m_TileIndex: 14
      m_TileSpriteIndex: 14
      m_TileMatrixIndex: 0
      m_TileColorIndex: 0
      m_TileObjectToInstantiateIndex: 65535
      m_AllTileFlags: 1073741825
  - first: {x: 2, y: 0, z: 0}
    second:
      serializedVersion: 2
      m_TileIndex: 0
      m_TileSpriteIndex: 0
      m_TileMatrixIndex: 0
      m_TileColorIndex: 0
      m_TileObjectToInstantiateIndex: 65535
      m_AllTileFlags: 1073741825
  - first: {x: 3, y: 0, z: 0}
    second:
      serializedVersion: 2
      m_TileIndex: 1
      m_TileSpriteIndex: 1
      m_TileMatrixIndex: 0
      m_TileColorIndex: 0
      m_TileObjectToInstantiateIndex: 65535
      m_AllTileFlags: 1073741825
  - first: {x: 4, y: 0, z: 0}
    second:
      serializedVersion: 2
      m_TileIndex: 2
      m_TileSpriteIndex: 2
      m_TileMatrixIndex: 0
      m_TileColorIndex: 0
      m_TileObjectToInstantiateIndex: 65535
      m_AllTileFlags: 1073741825
  - first: {x: 5, y: 0, z: 0}
    second:
      serializedVersion: 2
      m_TileIndex: 3
      m_TileSpriteIndex: 3
      m_TileMatrixIndex: 0
      m_TileColorIndex: 0
      m_TileObjectToInstantiateIndex: 65535
      m_AllTileFlags: 1073741825
  - first: {x: 6, y: 0, z: 0}
    second:
      serializedVersion: 2
      m_TileIndex: 4
      m_TileSpriteIndex: 4
      m_TileMatrixIndex: 0
      m_TileColorIndex: 0
      m_TileObjectToInstantiateIndex: 65535
      m_AllTileFlags: 1073741825
  - first: {x: 7, y: 0, z: 0}
    second:
      serializedVersion: 2
      m_TileIndex: 5
      m_TileSpriteIndex: 5
      m_TileMatrixIndex: 0
      m_TileColorIndex: 0
      m_TileObjectToInstantiateIndex: 65535
      m_AllTileFlags: 1073741825
  - first: {x: 8, y: 0, z: 0}
    second:
      serializedVersion: 2
      m_TileIndex: 6
      m_TileSpriteIndex: 6
      m_TileMatrixIndex: 0
      m_TileColorIndex: 0
      m_TileObjectToInstantiateIndex: 65535
      m_AllTileFlags: 1073741825
  m_AnimatedTiles: {}
  m_TileAssetArray:
  - m_RefCount: 1
    m_Data: {fileID: 11400000, guid: ecda7ce29d44cef45a966be4e1f0747b, type: 2}
  - m_RefCount: 1
    m_Data: {fileID: 11400000, guid: 5dab340bcd131da499dff5e423beb00c, type: 2}
  - m_RefCount: 1
    m_Data: {fileID: 11400000, guid: d4b9d6ae33ee1eb42bc4b7bec612c990, type: 2}
  - m_RefCount: 1
    m_Data: {fileID: 11400000, guid: aad88b3645aa0ae4788bc4dba18723dd, type: 2}
  - m_RefCount: 1
    m_Data: {fileID: 11400000, guid: 712d82dc2d3f38043901d2e949d3b8d1, type: 2}
  - m_RefCount: 1
    m_Data: {fileID: 11400000, guid: 8258caa6c0ed24847934e1a4428b444c, type: 2}
  - m_RefCount: 1
    m_Data: {fileID: 11400000, guid: dd4c70ade38c9e24db421d732dfd6fb9, type: 2}
  - m_RefCount: 1
    m_Data: {fileID: 11400000, guid: bbcfbc0f394f4a34d924901c7b7cbfcf, type: 2}
  - m_RefCount: 1
    m_Data: {fileID: 11400000, guid: f100a8c2a64e83741b64131ba8ddb1af, type: 2}
  - m_RefCount: 1
    m_Data: {fileID: 11400000, guid: 43cc86d4590681e4dbf44502c401c62c, type: 2}
  - m_RefCount: 1
    m_Data: {fileID: 11400000, guid: dd35fa851dff9ab46834742043ea18a2, type: 2}
  - m_RefCount: 1
    m_Data: {fileID: 11400000, guid: 979f9b62e5e316149a667f170646c658, type: 2}
  - m_RefCount: 1
    m_Data: {fileID: 11400000, guid: 022be8f9ef1039f4b9ec6e4a90b2aa8a, type: 2}
  - m_RefCount: 1
    m_Data: {fileID: 11400000, guid: 8cfc8c824a90b2b46934c7cdc667ef8b, type: 2}
  - m_RefCount: 1
    m_Data: {fileID: 11400000, guid: 6f2027358b7c3db4d86298b212c592a9, type: 2}
  - m_RefCount: 1
    m_Data: {fileID: 11400000, guid: ce6895d20f0491648930474619ac04c6, type: 2}
  - m_RefCount: 1
    m_Data: {fileID: 11400000, guid: 89f1dab5557ded54cb4ab55851a6aca9, type: 2}
  - m_RefCount: 1
    m_Data: {fileID: 11400000, guid: feaa770f5ad77cc4f9d40dea062aef93, type: 2}
  - m_RefCount: 1
    m_Data: {fileID: 11400000, guid: e2db515bf7c6c3b4fa2c8a81eb7a2ae5, type: 2}
  - m_RefCount: 1
    m_Data: {fileID: 11400000, guid: 1ca46ec9be4a0bf4a9530b4eda6e1f01, type: 2}
  - m_RefCount: 1
    m_Data: {fileID: 11400000, guid: 16e5dd3b8b42ad843b366cab86d64917, type: 2}
  - m_RefCount: 1
    m_Data: {fileID: 11400000, guid: e1d0c4a092d2b6940a0a29e5acebd945, type: 2}
  - m_RefCount: 1
    m_Data: {fileID: 11400000, guid: 900ca48b033a34848a2168dd6f5baa40, type: 2}
  - m_RefCount: 1
    m_Data: {fileID: 11400000, guid: 46ccfdec9d9fd70488524966f8d0f527, type: 2}
  - m_RefCount: 1
    m_Data: {fileID: 11400000, guid: 8c3a8ae82355b7c409b2e0a373a68ce8, type: 2}
  - m_RefCount: 1
    m_Data: {fileID: 11400000, guid: 616f6bb33342a734f93c5652c978e41f, type: 2}
  - m_RefCount: 1
    m_Data: {fileID: 11400000, guid: 7ffab8e70f362fc409f2cecb7f7129b4, type: 2}
  - m_RefCount: 1
    m_Data: {fileID: 11400000, guid: dd17ce242d58fc048971d6a012ea9fcf, type: 2}
  - m_RefCount: 1
    m_Data: {fileID: 11400000, guid: 6aab9f733163b884d90945c92dca1c5b, type: 2}
  - m_RefCount: 1
    m_Data: {fileID: 11400000, guid: 97e3656d1a357b94b8887d0948c0306c, type: 2}
  - m_RefCount: 1
    m_Data: {fileID: 11400000, guid: e561b02cef63ab742b4fd0577ebd0d34, type: 2}
  - m_RefCount: 1
    m_Data: {fileID: 11400000, guid: c854a734893c2b341a7a9b2bff101909, type: 2}
  - m_RefCount: 1
    m_Data: {fileID: 11400000, guid: 84cbf634200bfbe48a700ab85c40f937, type: 2}
  - m_RefCount: 1
    m_Data: {fileID: 11400000, guid: 67feb33a6c16a884999d09492bd23786, type: 2}
  - m_RefCount: 1
    m_Data: {fileID: 11400000, guid: ec330beb7810c09429dbf925a4c943f0, type: 2}
  - m_RefCount: 1
    m_Data: {fileID: 11400000, guid: 7fa6b8a0a2f74a44f9caa12141ae595e, type: 2}
  - m_RefCount: 1
    m_Data: {fileID: 11400000, guid: 0aeba9ff0e0c1e04497c86e3d01f0855, type: 2}
  - m_RefCount: 1
    m_Data: {fileID: 11400000, guid: d0e7bda9cef6506458b101bac4e7cff5, type: 2}
  - m_RefCount: 1
    m_Data: {fileID: 11400000, guid: af1990b7087a81f4fb21639b03913bec, type: 2}
  - m_RefCount: 1
    m_Data: {fileID: 11400000, guid: f4d1cc8dbe1fe064e811c1d96ec25325, type: 2}
  - m_RefCount: 1
    m_Data: {fileID: 11400000, guid: 1b2ab2ce84c3205438b596300cd0c870, type: 2}
  - m_RefCount: 1
    m_Data: {fileID: 11400000, guid: 5fc7e670f1ffb9741a407dd79d8b6f3a, type: 2}
  - m_RefCount: 1
    m_Data: {fileID: 11400000, guid: 4f1622243ae5eaa44877c08803862d9b, type: 2}
  - m_RefCount: 1
    m_Data: {fileID: 11400000, guid: 1f3b477538c623d4d92e5e3349b50b4b, type: 2}
  - m_RefCount: 1
    m_Data: {fileID: 11400000, guid: 2f276f66933601a4a849fa8ea44095a3, type: 2}
  - m_RefCount: 1
    m_Data: {fileID: 11400000, guid: 522786c1b2c87084899eab61d1bad085, type: 2}
  - m_RefCount: 1
    m_Data: {fileID: 11400000, guid: e42a15e3cce663d44a2a0b253f49fa9e, type: 2}
  - m_RefCount: 1
    m_Data: {fileID: 11400000, guid: 182f3cf54ce98b24490b99ef31cb18c6, type: 2}
  - m_RefCount: 1
    m_Data: {fileID: 11400000, guid: 6e4e19815300a3848981146c59867b69, type: 2}
  - m_RefCount: 1
    m_Data: {fileID: 11400000, guid: 228abdb76b68d19418fca821fd237b1d, type: 2}
  - m_RefCount: 1
    m_Data: {fileID: 11400000, guid: 979c972c462fbc54d8beaea62c19cf2b, type: 2}
  - m_RefCount: 1
    m_Data: {fileID: 11400000, guid: b4ff942a4b905e049bc8982dcdfeddb5, type: 2}
  - m_RefCount: 1
    m_Data: {fileID: 11400000, guid: 0c6e3b2adc0803c40b6852220b3e6c44, type: 2}
  - m_RefCount: 1
    m_Data: {fileID: 11400000, guid: f56aceb16b7018a4eba4b3cd4c72c3d2, type: 2}
  - m_RefCount: 1
    m_Data: {fileID: 11400000, guid: 808a77786323c494686656d5b7d39bcc, type: 2}
  - m_RefCount: 1
    m_Data: {fileID: 11400000, guid: 7e68ceca8dd05964daf1166ca6b6e174, type: 2}
  - m_RefCount: 1
    m_Data: {fileID: 11400000, guid: f2e80e62927e86d429e6bdd93239e0f1, type: 2}
  - m_RefCount: 1
    m_Data: {fileID: 11400000, guid: 6f59e5a4c9287774884c66f65a8534c8, type: 2}
  - m_RefCount: 1
    m_Data: {fileID: 11400000, guid: 5a9813929bec34946bdbc94121e01f2e, type: 2}
  - m_RefCount: 1
    m_Data: {fileID: 11400000, guid: 76c51a9bf4138ba4b9a362fad91ba8e9, type: 2}
  - m_RefCount: 1
    m_Data: {fileID: 11400000, guid: e7ee32a9bff1783499217f6df51e3d46, type: 2}
  - m_RefCount: 1
    m_Data: {fileID: 11400000, guid: 59a6ad16379f49440be071f191ab5121, type: 2}
  - m_RefCount: 1
    m_Data: {fileID: 11400000, guid: 62413777132533b40962c294b8c06149, type: 2}
  - m_RefCount: 1
    m_Data: {fileID: 11400000, guid: 256f584caad934b44b09a83ca00bc10d, type: 2}
  - m_RefCount: 1
    m_Data: {fileID: 11400000, guid: 10c20e8ba536eb84ba3c9ceb13c7fbfe, type: 2}
  - m_RefCount: 1
    m_Data: {fileID: 11400000, guid: a061841543545ba459f2860ff3985805, type: 2}
  - m_RefCount: 1
    m_Data: {fileID: 11400000, guid: 5c234965818474942b5c86902af325a2, type: 2}
  - m_RefCount: 1
    m_Data: {fileID: 11400000, guid: 8ae88ae10608e3649901b5cc0b3c1491, type: 2}
  - m_RefCount: 1
    m_Data: {fileID: 11400000, guid: e96725c33a61c724e8cf7839ab2c0333, type: 2}
  - m_RefCount: 1
    m_Data: {fileID: 11400000, guid: 0453733ff6ec2b14abe8b95c9171cf9a, type: 2}
  - m_RefCount: 1
    m_Data: {fileID: 11400000, guid: 48186725c5f2d484696fa8c8f9f7ef60, type: 2}
  - m_RefCount: 1
    m_Data: {fileID: 11400000, guid: d64f4ea22fa7aae488e7133d6e4fffa5, type: 2}
  - m_RefCount: 1
    m_Data: {fileID: 11400000, guid: d6d14b3795b12b645b24720f5388d4b4, type: 2}
  - m_RefCount: 1
    m_Data: {fileID: 11400000, guid: ab1ce6f57eecb9f48a24c9d8df7977ac, type: 2}
  - m_RefCount: 1
    m_Data: {fileID: 11400000, guid: 2236ef317a7856044b85b27f96252442, type: 2}
  - m_RefCount: 1
    m_Data: {fileID: 11400000, guid: b996c16957c948841ad11b8608b9f648, type: 2}
  - m_RefCount: 1
    m_Data: {fileID: 11400000, guid: 85d718ed3380f924ca3fa1ac090abbf9, type: 2}
  - m_RefCount: 1
    m_Data: {fileID: 11400000, guid: 4030702f391b82c4db262c4a017051d9, type: 2}
  - m_RefCount: 1
    m_Data: {fileID: 11400000, guid: cc4241cfea0638a4cb78e5984bf4f4c8, type: 2}
  - m_RefCount: 1
    m_Data: {fileID: 11400000, guid: 7c600c8f7b175b141b593894aa8ea6b6, type: 2}
  - m_RefCount: 1
    m_Data: {fileID: 11400000, guid: 7a724b7df26d5a14282689672c9293fe, type: 2}
  m_TileSpriteArray:
  - m_RefCount: 1
    m_Data: {fileID: -5096943398694811438, guid: d41e093eb04899848b9f72c365995971, type: 3}
  - m_RefCount: 1
    m_Data: {fileID: -5185538563069299847, guid: d41e093eb04899848b9f72c365995971, type: 3}
  - m_RefCount: 1
    m_Data: {fileID: 4931336262864395532, guid: d41e093eb04899848b9f72c365995971, type: 3}
  - m_RefCount: 1
    m_Data: {fileID: -4511957511444199945, guid: d41e093eb04899848b9f72c365995971, type: 3}
  - m_RefCount: 1
    m_Data: {fileID: -2455590372566908160, guid: d41e093eb04899848b9f72c365995971, type: 3}
  - m_RefCount: 1
    m_Data: {fileID: -3486229152128388244, guid: d41e093eb04899848b9f72c365995971, type: 3}
  - m_RefCount: 1
    m_Data: {fileID: -2620444065446581310, guid: d41e093eb04899848b9f72c365995971, type: 3}
  - m_RefCount: 1
    m_Data: {fileID: -1705195598464333176, guid: d41e093eb04899848b9f72c365995971, type: 3}
  - m_RefCount: 1
    m_Data: {fileID: -4214792645994573098, guid: d41e093eb04899848b9f72c365995971, type: 3}
  - m_RefCount: 1
    m_Data: {fileID: 4771436473021278050, guid: d41e093eb04899848b9f72c365995971, type: 3}
  - m_RefCount: 1
    m_Data: {fileID: -8465423069238315635, guid: d41e093eb04899848b9f72c365995971, type: 3}
  - m_RefCount: 1
    m_Data: {fileID: -4864911338463988553, guid: d41e093eb04899848b9f72c365995971, type: 3}
  - m_RefCount: 1
    m_Data: {fileID: -7668562464635742368, guid: d41e093eb04899848b9f72c365995971, type: 3}
  - m_RefCount: 1
    m_Data: {fileID: 6329004806853206244, guid: d41e093eb04899848b9f72c365995971, type: 3}
  - m_RefCount: 1
    m_Data: {fileID: 6780820652765026202, guid: d41e093eb04899848b9f72c365995971, type: 3}
  - m_RefCount: 1
    m_Data: {fileID: -6962562669122266696, guid: d41e093eb04899848b9f72c365995971, type: 3}
  - m_RefCount: 1
    m_Data: {fileID: 7516585188715290954, guid: d41e093eb04899848b9f72c365995971, type: 3}
  - m_RefCount: 1
    m_Data: {fileID: 574328982017736117, guid: d41e093eb04899848b9f72c365995971, type: 3}
  - m_RefCount: 1
    m_Data: {fileID: -2784175039910150670, guid: d41e093eb04899848b9f72c365995971, type: 3}
  - m_RefCount: 1
    m_Data: {fileID: -4502407601327121427, guid: d41e093eb04899848b9f72c365995971, type: 3}
  - m_RefCount: 1
    m_Data: {fileID: -8474834464877785980, guid: d41e093eb04899848b9f72c365995971, type: 3}
  - m_RefCount: 1
    m_Data: {fileID: 3767028758731038721, guid: d41e093eb04899848b9f72c365995971, type: 3}
  - m_RefCount: 1
    m_Data: {fileID: -642796945755805101, guid: d41e093eb04899848b9f72c365995971, type: 3}
  - m_RefCount: 1
    m_Data: {fileID: -3641289534372211248, guid: d41e093eb04899848b9f72c365995971, type: 3}
  - m_RefCount: 1
    m_Data: {fileID: 7555136514903319829, guid: d41e093eb04899848b9f72c365995971, type: 3}
  - m_RefCount: 1
    m_Data: {fileID: 4782937729462850390, guid: d41e093eb04899848b9f72c365995971, type: 3}
  - m_RefCount: 1
    m_Data: {fileID: 3108749358480870267, guid: d41e093eb04899848b9f72c365995971, type: 3}
  - m_RefCount: 1
    m_Data: {fileID: -8028402603225053079, guid: d41e093eb04899848b9f72c365995971, type: 3}
  - m_RefCount: 1
    m_Data: {fileID: 3945102620249081248, guid: d41e093eb04899848b9f72c365995971, type: 3}
  - m_RefCount: 1
    m_Data: {fileID: 6523236419025688104, guid: d41e093eb04899848b9f72c365995971, type: 3}
  - m_RefCount: 1
    m_Data: {fileID: 201361385172170727, guid: d41e093eb04899848b9f72c365995971, type: 3}
  - m_RefCount: 1
    m_Data: {fileID: 9179781065786198048, guid: d41e093eb04899848b9f72c365995971, type: 3}
  - m_RefCount: 1
    m_Data: {fileID: 7928741349538458651, guid: d41e093eb04899848b9f72c365995971, type: 3}
  - m_RefCount: 1
    m_Data: {fileID: -7766169135605879476, guid: d41e093eb04899848b9f72c365995971, type: 3}
  - m_RefCount: 1
    m_Data: {fileID: -3650568750970496771, guid: d41e093eb04899848b9f72c365995971, type: 3}
  - m_RefCount: 1
    m_Data: {fileID: 1052868047846677055, guid: d41e093eb04899848b9f72c365995971, type: 3}
  - m_RefCount: 1
    m_Data: {fileID: -2259297129546065095, guid: d41e093eb04899848b9f72c365995971, type: 3}
  - m_RefCount: 1
    m_Data: {fileID: 8638033923882875515, guid: d41e093eb04899848b9f72c365995971, type: 3}
  - m_RefCount: 1
    m_Data: {fileID: 4561637599913251575, guid: d41e093eb04899848b9f72c365995971, type: 3}
  - m_RefCount: 1
    m_Data: {fileID: 2489581141920534772, guid: d41e093eb04899848b9f72c365995971, type: 3}
  - m_RefCount: 1
    m_Data: {fileID: -1488293896223885053, guid: d41e093eb04899848b9f72c365995971, type: 3}
  - m_RefCount: 1
    m_Data: {fileID: -8055476999504601909, guid: d41e093eb04899848b9f72c365995971, type: 3}
  - m_RefCount: 1
    m_Data: {fileID: 3871331728071921380, guid: d41e093eb04899848b9f72c365995971, type: 3}
  - m_RefCount: 1
    m_Data: {fileID: -8978089873497431135, guid: d41e093eb04899848b9f72c365995971, type: 3}
  - m_RefCount: 1
    m_Data: {fileID: 4725020972333092211, guid: d41e093eb04899848b9f72c365995971, type: 3}
  - m_RefCount: 1
    m_Data: {fileID: -1841553404997793767, guid: d41e093eb04899848b9f72c365995971, type: 3}
  - m_RefCount: 1
    m_Data: {fileID: 3997011942575539486, guid: d41e093eb04899848b9f72c365995971, type: 3}
  - m_RefCount: 1
    m_Data: {fileID: -6847694505658588535, guid: d41e093eb04899848b9f72c365995971, type: 3}
  - m_RefCount: 1
    m_Data: {fileID: -332547896452093109, guid: d41e093eb04899848b9f72c365995971, type: 3}
  - m_RefCount: 1
    m_Data: {fileID: -5292476786364952648, guid: d41e093eb04899848b9f72c365995971, type: 3}
  - m_RefCount: 1
    m_Data: {fileID: 7597351308374714041, guid: d41e093eb04899848b9f72c365995971, type: 3}
  - m_RefCount: 1
    m_Data: {fileID: -2732490568896347067, guid: d41e093eb04899848b9f72c365995971, type: 3}
  - m_RefCount: 1
    m_Data: {fileID: 8125653759222932235, guid: d41e093eb04899848b9f72c365995971, type: 3}
  - m_RefCount: 1
    m_Data: {fileID: -2785920240118894392, guid: d41e093eb04899848b9f72c365995971, type: 3}
  - m_RefCount: 1
    m_Data: {fileID: -1161212874871135177, guid: d41e093eb04899848b9f72c365995971, type: 3}
  - m_RefCount: 1
    m_Data: {fileID: -4664469037161988824, guid: d41e093eb04899848b9f72c365995971, type: 3}
  - m_RefCount: 1
    m_Data: {fileID: -3991101058644843748, guid: d41e093eb04899848b9f72c365995971, type: 3}
  - m_RefCount: 1
    m_Data: {fileID: -7186537491847437073, guid: d41e093eb04899848b9f72c365995971, type: 3}
  - m_RefCount: 1
    m_Data: {fileID: -5109582072961078949, guid: d41e093eb04899848b9f72c365995971, type: 3}
  - m_RefCount: 1
    m_Data: {fileID: 1704051039587778667, guid: d41e093eb04899848b9f72c365995971, type: 3}
  - m_RefCount: 1
    m_Data: {fileID: -5228018335827639957, guid: d41e093eb04899848b9f72c365995971, type: 3}
  - m_RefCount: 1
    m_Data: {fileID: 6708916652915710729, guid: d41e093eb04899848b9f72c365995971, type: 3}
  - m_RefCount: 1
    m_Data: {fileID: -6122111664042258037, guid: d41e093eb04899848b9f72c365995971, type: 3}
  - m_RefCount: 1
    m_Data: {fileID: 844949289354230656, guid: d41e093eb04899848b9f72c365995971, type: 3}
  - m_RefCount: 1
    m_Data: {fileID: 4356043930619503054, guid: d41e093eb04899848b9f72c365995971, type: 3}
  - m_RefCount: 1
    m_Data: {fileID: -3159338582716253201, guid: d41e093eb04899848b9f72c365995971, type: 3}
  - m_RefCount: 1
    m_Data: {fileID: -6212907638085852371, guid: d41e093eb04899848b9f72c365995971, type: 3}
  - m_RefCount: 1
    m_Data: {fileID: -5303997443849462528, guid: d41e093eb04899848b9f72c365995971, type: 3}
  - m_RefCount: 1
    m_Data: {fileID: 4559398237465651283, guid: d41e093eb04899848b9f72c365995971, type: 3}
  - m_RefCount: 1
    m_Data: {fileID: 1978599481515917489, guid: d41e093eb04899848b9f72c365995971, type: 3}
  - m_RefCount: 1
    m_Data: {fileID: 630252436398334092, guid: d41e093eb04899848b9f72c365995971, type: 3}
  - m_RefCount: 1
    m_Data: {fileID: -7014702985607881689, guid: d41e093eb04899848b9f72c365995971, type: 3}
  - m_RefCount: 1
    m_Data: {fileID: -2902327671651037332, guid: d41e093eb04899848b9f72c365995971, type: 3}
  - m_RefCount: 1
    m_Data: {fileID: -3800977111560182171, guid: d41e093eb04899848b9f72c365995971, type: 3}
  - m_RefCount: 1
    m_Data: {fileID: -6976551082559520646, guid: d41e093eb04899848b9f72c365995971, type: 3}
  - m_RefCount: 1
    m_Data: {fileID: 4698013625779080975, guid: d41e093eb04899848b9f72c365995971, type: 3}
  - m_RefCount: 1
    m_Data: {fileID: 1087124566759076925, guid: d41e093eb04899848b9f72c365995971, type: 3}
  - m_RefCount: 1
    m_Data: {fileID: -3051292313340269737, guid: d41e093eb04899848b9f72c365995971, type: 3}
  - m_RefCount: 1
    m_Data: {fileID: -1049939858870723577, guid: d41e093eb04899848b9f72c365995971, type: 3}
  - m_RefCount: 1
    m_Data: {fileID: -4978458377879473297, guid: d41e093eb04899848b9f72c365995971, type: 3}
  - m_RefCount: 1
    m_Data: {fileID: 188183701451354016, guid: d41e093eb04899848b9f72c365995971, type: 3}
  m_TileMatrixArray:
  - m_RefCount: 81
    m_Data:
      e00: 1
      e01: 0
      e02: 0
      e03: 0
      e10: 0
      e11: 1
      e12: 0
      e13: 0
      e20: 0
      e21: 0
      e22: 1
      e23: 0
      e30: 0
      e31: 0
      e32: 0
      e33: 1
  m_TileColorArray:
  - m_RefCount: 81
    m_Data: {r: 1, g: 1, b: 1, a: 1}
  m_TileObjectToInstantiateArray: []
  m_AnimationFrameRate: 1
  m_Color: {r: 1, g: 1, b: 1, a: 1}
  m_Origin: {x: -1, y: -9, z: 0}
  m_Size: {x: 10, y: 10, z: 1}
  m_TileAnchor: {x: 0.5, y: 0.5, z: 0}
  m_TileOrientation: 0
  m_TileOrientationMatrix:
    e00: 1
    e01: 0
    e02: 0
    e03: 0
    e10: 0
    e11: 1
    e12: 0
    e13: 0
    e20: 0
    e21: 0
    e22: 1
    e23: 0
    e30: 0
    e31: 0
    e32: 0
    e33: 1
--- !u!483693784 &3447005074753728953
TilemapRenderer:
  m_ObjectHideFlags: 0
  m_CorrespondingSourceObject: {fileID: 0}
  m_PrefabInstance: {fileID: 0}
  m_PrefabAsset: {fileID: 0}
  m_GameObject: {fileID: 6156335109127568394}
  m_Enabled: 1
  m_CastShadows: 0
  m_ReceiveShadows: 0
  m_DynamicOccludee: 1
  m_MotionVectors: 1
  m_LightProbeUsage: 0
  m_ReflectionProbeUsage: 0
  m_RayTracingMode: 0
  m_RayTraceProcedural: 0
  m_RenderingLayerMask: 1
  m_RendererPriority: 0
  m_Materials:
  - {fileID: 10754, guid: 0000000000000000f000000000000000, type: 0}
  m_StaticBatchInfo:
    firstSubMesh: 0
    subMeshCount: 0
  m_StaticBatchRoot: {fileID: 0}
  m_ProbeAnchor: {fileID: 0}
  m_LightProbeVolumeOverride: {fileID: 0}
  m_ScaleInLightmap: 1
  m_ReceiveGI: 1
  m_PreserveUVs: 0
  m_IgnoreNormalsForChartDetection: 0
  m_ImportantGI: 0
  m_StitchLightmapSeams: 1
  m_SelectedEditorRenderState: 0
  m_MinimumChartSize: 4
  m_AutoUVMaxDistance: 0.5
  m_AutoUVMaxAngle: 89
  m_LightmapParameters: {fileID: 0}
  m_SortingLayerID: 0
  m_SortingLayer: 0
  m_SortingOrder: 0
  m_ChunkSize: {x: 32, y: 32, z: 32}
  m_ChunkCullingBounds: {x: 0, y: 0, z: 0}
  m_MaxChunkCount: 16
  m_MaxFrameAge: 16
  m_SortOrder: 0
  m_Mode: 0
  m_DetectChunkCullingBounds: 0
  m_MaskInteraction: 0
--- !u!1 &6200235863304513171
GameObject:
  m_ObjectHideFlags: 0
  m_CorrespondingSourceObject: {fileID: 0}
  m_PrefabInstance: {fileID: 0}
  m_PrefabAsset: {fileID: 0}
  serializedVersion: 6
  m_Component:
  - component: {fileID: 9008478063621980066}
  - component: {fileID: 7952121447557295285}
  m_Layer: 31
  m_Name: FinishedMap
  m_TagString: Untagged
  m_Icon: {fileID: 0}
  m_NavMeshLayer: 0
  m_StaticEditorFlags: 0
  m_IsActive: 1
--- !u!4 &9008478063621980066
Transform:
  m_ObjectHideFlags: 0
  m_CorrespondingSourceObject: {fileID: 0}
  m_PrefabInstance: {fileID: 0}
  m_PrefabAsset: {fileID: 0}
  m_GameObject: {fileID: 6200235863304513171}
  m_LocalRotation: {x: 0, y: 0, z: 0, w: 1}
  m_LocalPosition: {x: 0, y: 0, z: 0}
  m_LocalScale: {x: 1, y: 1, z: 1}
  m_Children:
  - {fileID: 3700764168686636285}
  m_Father: {fileID: 0}
  m_RootOrder: 0
  m_LocalEulerAnglesHint: {x: 0, y: 0, z: 0}
--- !u!156049354 &7952121447557295285
Grid:
  m_ObjectHideFlags: 0
  m_CorrespondingSourceObject: {fileID: 0}
  m_PrefabInstance: {fileID: 0}
  m_PrefabAsset: {fileID: 0}
  m_GameObject: {fileID: 6200235863304513171}
  m_Enabled: 1
  m_CellSize: {x: 1, y: 1, z: 0}
  m_CellGap: {x: 0, y: 0, z: 0}
  m_CellLayout: 0
  m_CellSwizzle: 0
--- !u!114 &6875367414467319167
MonoBehaviour:
  m_ObjectHideFlags: 0
  m_CorrespondingSourceObject: {fileID: 0}
  m_PrefabInstance: {fileID: 0}
  m_PrefabAsset: {fileID: 0}
  m_GameObject: {fileID: 0}
  m_Enabled: 1
  m_EditorHideFlags: 0
  m_Script: {fileID: 12395, guid: 0000000000000000e000000000000000, type: 0}
  m_Name: Palette Settings
  m_EditorClassIdentifier: 
  cellSizing: 0
