%YAML 1.1
%TAG !u! tag:unity3d.com,2011:
--- !u!1 &2803135846779418664
GameObject:
  m_ObjectHideFlags: 0
  m_CorrespondingSourceObject: {fileID: 0}
  m_PrefabInstance: {fileID: 0}
  m_PrefabAsset: {fileID: 0}
  serializedVersion: 6
  m_Component:
  - component: {fileID: 1173613948550996654}
  - component: {fileID: 1859786410275553483}
  m_Layer: 31
  m_Name: Updated lamp and textures
  m_TagString: Untagged
  m_Icon: {fileID: 0}
  m_NavMeshLayer: 0
  m_StaticEditorFlags: 0
  m_IsActive: 1
--- !u!4 &1173613948550996654
Transform:
  m_ObjectHideFlags: 0
  m_CorrespondingSourceObject: {fileID: 0}
  m_PrefabInstance: {fileID: 0}
  m_PrefabAsset: {fileID: 0}
  m_GameObject: {fileID: 2803135846779418664}
  m_LocalRotation: {x: 0, y: 0, z: 0, w: 1}
  m_LocalPosition: {x: 0, y: 0, z: 0}
  m_LocalScale: {x: 1, y: 1, z: 1}
  m_Children:
  - {fileID: 6390130978342983938}
  m_Father: {fileID: 0}
  m_RootOrder: 0
  m_LocalEulerAnglesHint: {x: 0, y: 0, z: 0}
--- !u!156049354 &1859786410275553483
Grid:
  m_ObjectHideFlags: 0
  m_CorrespondingSourceObject: {fileID: 0}
  m_PrefabInstance: {fileID: 0}
  m_PrefabAsset: {fileID: 0}
  m_GameObject: {fileID: 2803135846779418664}
  m_Enabled: 1
  m_CellSize: {x: 1, y: 1, z: 0}
  m_CellGap: {x: 0, y: 0, z: 0}
  m_CellLayout: 0
  m_CellSwizzle: 0
--- !u!1 &3033826813543284886
GameObject:
  m_ObjectHideFlags: 0
  m_CorrespondingSourceObject: {fileID: 0}
  m_PrefabInstance: {fileID: 0}
  m_PrefabAsset: {fileID: 0}
  serializedVersion: 6
  m_Component:
  - component: {fileID: 6390130978342983938}
  - component: {fileID: 4626259467777718233}
  - component: {fileID: 4457181572212444150}
  m_Layer: 0
  m_Name: Layer1
  m_TagString: Untagged
  m_Icon: {fileID: 0}
  m_NavMeshLayer: 0
  m_StaticEditorFlags: 0
  m_IsActive: 1
--- !u!4 &6390130978342983938
Transform:
  m_ObjectHideFlags: 0
  m_CorrespondingSourceObject: {fileID: 0}
  m_PrefabInstance: {fileID: 0}
  m_PrefabAsset: {fileID: 0}
  m_GameObject: {fileID: 3033826813543284886}
  m_LocalRotation: {x: -0, y: -0, z: -0, w: 1}
  m_LocalPosition: {x: 0, y: 0, z: 0}
  m_LocalScale: {x: 1, y: 1, z: 1}
  m_Children: []
  m_Father: {fileID: 1173613948550996654}
  m_RootOrder: 0
  m_LocalEulerAnglesHint: {x: 0, y: 0, z: 0}
--- !u!1839735485 &4626259467777718233
Tilemap:
  m_ObjectHideFlags: 0
  m_CorrespondingSourceObject: {fileID: 0}
  m_PrefabInstance: {fileID: 0}
  m_PrefabAsset: {fileID: 0}
  m_GameObject: {fileID: 3033826813543284886}
  m_Enabled: 1
  m_Tiles:
  - first: {x: -2, y: -11, z: 0}
    second:
      serializedVersion: 2
      m_TileIndex: 129
      m_TileSpriteIndex: 129
      m_TileMatrixIndex: 0
      m_TileColorIndex: 0
      m_TileObjectToInstantiateIndex: 65535
      m_AllTileFlags: 1073741825
  - first: {x: 2, y: -11, z: 0}
    second:
      serializedVersion: 2
      m_TileIndex: 130
      m_TileSpriteIndex: 130
      m_TileMatrixIndex: 0
      m_TileColorIndex: 0
      m_TileObjectToInstantiateIndex: 65535
      m_AllTileFlags: 1073741825
  - first: {x: -8, y: -10, z: 0}
    second:
      serializedVersion: 2
      m_TileIndex: 123
      m_TileSpriteIndex: 123
      m_TileMatrixIndex: 0
      m_TileColorIndex: 0
      m_TileObjectToInstantiateIndex: 65535
      m_AllTileFlags: 1073741825
  - first: {x: -7, y: -10, z: 0}
    second:
      serializedVersion: 2
      m_TileIndex: 124
      m_TileSpriteIndex: 124
      m_TileMatrixIndex: 0
      m_TileColorIndex: 0
      m_TileObjectToInstantiateIndex: 65535
      m_AllTileFlags: 1073741825
  - first: {x: -6, y: -10, z: 0}
    second:
      serializedVersion: 2
      m_TileIndex: 125
      m_TileSpriteIndex: 125
      m_TileMatrixIndex: 0
      m_TileColorIndex: 0
      m_TileObjectToInstantiateIndex: 65535
      m_AllTileFlags: 1073741825
  - first: {x: -4, y: -10, z: 0}
    second:
      serializedVersion: 2
      m_TileIndex: 126
      m_TileSpriteIndex: 126
      m_TileMatrixIndex: 0
      m_TileColorIndex: 0
      m_TileObjectToInstantiateIndex: 65535
      m_AllTileFlags: 1073741825
  - first: {x: -1, y: -10, z: 0}
    second:
      serializedVersion: 2
      m_TileIndex: 127
      m_TileSpriteIndex: 127
      m_TileMatrixIndex: 0
      m_TileColorIndex: 0
      m_TileObjectToInstantiateIndex: 65535
      m_AllTileFlags: 1073741825
  - first: {x: 1, y: -10, z: 0}
    second:
      serializedVersion: 2
      m_TileIndex: 128
      m_TileSpriteIndex: 128
      m_TileMatrixIndex: 0
      m_TileColorIndex: 0
      m_TileObjectToInstantiateIndex: 65535
      m_AllTileFlags: 1073741825
  - first: {x: -8, y: -9, z: 0}
    second:
      serializedVersion: 2
      m_TileIndex: 116
      m_TileSpriteIndex: 116
      m_TileMatrixIndex: 0
      m_TileColorIndex: 0
      m_TileObjectToInstantiateIndex: 65535
      m_AllTileFlags: 1073741825
  - first: {x: -7, y: -9, z: 0}
    second:
      serializedVersion: 2
      m_TileIndex: 117
      m_TileSpriteIndex: 117
      m_TileMatrixIndex: 0
      m_TileColorIndex: 0
      m_TileObjectToInstantiateIndex: 65535
      m_AllTileFlags: 1073741825
  - first: {x: -3, y: -9, z: 0}
    second:
      serializedVersion: 2
      m_TileIndex: 118
      m_TileSpriteIndex: 118
      m_TileMatrixIndex: 0
      m_TileColorIndex: 0
      m_TileObjectToInstantiateIndex: 65535
      m_AllTileFlags: 1073741825
  - first: {x: -2, y: -9, z: 0}
    second:
      serializedVersion: 2
      m_TileIndex: 119
      m_TileSpriteIndex: 119
      m_TileMatrixIndex: 0
      m_TileColorIndex: 0
      m_TileObjectToInstantiateIndex: 65535
      m_AllTileFlags: 1073741825
  - first: {x: -1, y: -9, z: 0}
    second:
      serializedVersion: 2
      m_TileIndex: 120
      m_TileSpriteIndex: 120
      m_TileMatrixIndex: 0
      m_TileColorIndex: 0
      m_TileObjectToInstantiateIndex: 65535
      m_AllTileFlags: 1073741825
  - first: {x: 0, y: -9, z: 0}
    second:
      serializedVersion: 2
      m_TileIndex: 121
      m_TileSpriteIndex: 121
      m_TileMatrixIndex: 0
      m_TileColorIndex: 0
      m_TileObjectToInstantiateIndex: 65535
      m_AllTileFlags: 1073741825
  - first: {x: 1, y: -9, z: 0}
    second:
      serializedVersion: 2
      m_TileIndex: 122
      m_TileSpriteIndex: 122
      m_TileMatrixIndex: 0
      m_TileColorIndex: 0
      m_TileObjectToInstantiateIndex: 65535
      m_AllTileFlags: 1073741825
  - first: {x: -7, y: -8, z: 0}
    second:
      serializedVersion: 2
      m_TileIndex: 111
      m_TileSpriteIndex: 111
      m_TileMatrixIndex: 0
      m_TileColorIndex: 0
      m_TileObjectToInstantiateIndex: 65535
      m_AllTileFlags: 1073741825
  - first: {x: -6, y: -8, z: 0}
    second:
      serializedVersion: 2
      m_TileIndex: 112
      m_TileSpriteIndex: 112
      m_TileMatrixIndex: 0
      m_TileColorIndex: 0
      m_TileObjectToInstantiateIndex: 65535
      m_AllTileFlags: 1073741825
  - first: {x: -5, y: -8, z: 0}
    second:
      serializedVersion: 2
      m_TileIndex: 82
      m_TileSpriteIndex: 82
      m_TileMatrixIndex: 0
      m_TileColorIndex: 0
      m_TileObjectToInstantiateIndex: 65535
      m_AllTileFlags: 1073741825
  - first: {x: -4, y: -8, z: 0}
    second:
      serializedVersion: 2
      m_TileIndex: 83
      m_TileSpriteIndex: 83
      m_TileMatrixIndex: 0
      m_TileColorIndex: 0
      m_TileObjectToInstantiateIndex: 65535
      m_AllTileFlags: 1073741825
  - first: {x: -3, y: -8, z: 0}
    second:
      serializedVersion: 2
      m_TileIndex: 84
      m_TileSpriteIndex: 84
      m_TileMatrixIndex: 0
      m_TileColorIndex: 0
      m_TileObjectToInstantiateIndex: 65535
      m_AllTileFlags: 1073741825
  - first: {x: -2, y: -8, z: 0}
    second:
      serializedVersion: 2
      m_TileIndex: 113
      m_TileSpriteIndex: 113
      m_TileMatrixIndex: 0
      m_TileColorIndex: 0
      m_TileObjectToInstantiateIndex: 65535
      m_AllTileFlags: 1073741825
  - first: {x: -1, y: -8, z: 0}
    second:
      serializedVersion: 2
      m_TileIndex: 85
      m_TileSpriteIndex: 85
      m_TileMatrixIndex: 0
      m_TileColorIndex: 0
      m_TileObjectToInstantiateIndex: 65535
      m_AllTileFlags: 1073741825
  - first: {x: 0, y: -8, z: 0}
    second:
      serializedVersion: 2
      m_TileIndex: 114
      m_TileSpriteIndex: 114
      m_TileMatrixIndex: 0
      m_TileColorIndex: 0
      m_TileObjectToInstantiateIndex: 65535
      m_AllTileFlags: 1073741825
  - first: {x: 1, y: -8, z: 0}
    second:
      serializedVersion: 2
      m_TileIndex: 115
      m_TileSpriteIndex: 115
      m_TileMatrixIndex: 0
      m_TileColorIndex: 0
      m_TileObjectToInstantiateIndex: 65535
      m_AllTileFlags: 1073741825
  - first: {x: -7, y: -7, z: 0}
    second:
      serializedVersion: 2
      m_TileIndex: 106
      m_TileSpriteIndex: 106
      m_TileMatrixIndex: 0
      m_TileColorIndex: 0
      m_TileObjectToInstantiateIndex: 65535
      m_AllTileFlags: 1073741825
  - first: {x: -6, y: -7, z: 0}
    second:
      serializedVersion: 2
      m_TileIndex: 107
      m_TileSpriteIndex: 107
      m_TileMatrixIndex: 0
      m_TileColorIndex: 0
      m_TileObjectToInstantiateIndex: 65535
      m_AllTileFlags: 1073741825
  - first: {x: -5, y: -7, z: 0}
    second:
      serializedVersion: 2
      m_TileIndex: 75
      m_TileSpriteIndex: 75
      m_TileMatrixIndex: 0
      m_TileColorIndex: 0
      m_TileObjectToInstantiateIndex: 65535
      m_AllTileFlags: 1073741825
  - first: {x: -4, y: -7, z: 0}
    second:
      serializedVersion: 2
      m_TileIndex: 76
      m_TileSpriteIndex: 76
      m_TileMatrixIndex: 0
      m_TileColorIndex: 0
      m_TileObjectToInstantiateIndex: 65535
      m_AllTileFlags: 1073741825
  - first: {x: -3, y: -7, z: 0}
    second:
      serializedVersion: 2
      m_TileIndex: 108
      m_TileSpriteIndex: 108
      m_TileMatrixIndex: 0
      m_TileColorIndex: 0
      m_TileObjectToInstantiateIndex: 65535
      m_AllTileFlags: 1073741825
  - first: {x: -2, y: -7, z: 0}
    second:
      serializedVersion: 2
      m_TileIndex: 109
      m_TileSpriteIndex: 109
      m_TileMatrixIndex: 0
      m_TileColorIndex: 0
      m_TileObjectToInstantiateIndex: 65535
      m_AllTileFlags: 1073741825
  - first: {x: -1, y: -7, z: 0}
    second:
      serializedVersion: 2
      m_TileIndex: 110
      m_TileSpriteIndex: 110
      m_TileMatrixIndex: 0
      m_TileColorIndex: 0
      m_TileObjectToInstantiateIndex: 65535
      m_AllTileFlags: 1073741825
  - first: {x: 0, y: -7, z: 0}
    second:
      serializedVersion: 2
      m_TileIndex: 77
      m_TileSpriteIndex: 77
      m_TileMatrixIndex: 0
      m_TileColorIndex: 0
      m_TileObjectToInstantiateIndex: 65535
      m_AllTileFlags: 1073741825
  - first: {x: 1, y: -7, z: 0}
    second:
      serializedVersion: 2
      m_TileIndex: 78
      m_TileSpriteIndex: 78
      m_TileMatrixIndex: 0
      m_TileColorIndex: 0
      m_TileObjectToInstantiateIndex: 65535
      m_AllTileFlags: 1073741825
  - first: {x: 2, y: -7, z: 0}
    second:
      serializedVersion: 2
      m_TileIndex: 79
      m_TileSpriteIndex: 79
      m_TileMatrixIndex: 0
      m_TileColorIndex: 0
      m_TileObjectToInstantiateIndex: 65535
      m_AllTileFlags: 1073741825
  - first: {x: 3, y: -7, z: 0}
    second:
      serializedVersion: 2
      m_TileIndex: 80
      m_TileSpriteIndex: 80
      m_TileMatrixIndex: 0
      m_TileColorIndex: 0
      m_TileObjectToInstantiateIndex: 65535
      m_AllTileFlags: 1073741825
  - first: {x: 4, y: -7, z: 0}
    second:
      serializedVersion: 2
      m_TileIndex: 81
      m_TileSpriteIndex: 81
      m_TileMatrixIndex: 0
      m_TileColorIndex: 0
      m_TileObjectToInstantiateIndex: 65535
      m_AllTileFlags: 1073741825
  - first: {x: -8, y: -6, z: 0}
    second:
      serializedVersion: 2
      m_TileIndex: 100
      m_TileSpriteIndex: 100
      m_TileMatrixIndex: 0
      m_TileColorIndex: 0
      m_TileObjectToInstantiateIndex: 65535
      m_AllTileFlags: 1073741825
  - first: {x: -7, y: -6, z: 0}
    second:
      serializedVersion: 2
      m_TileIndex: 101
      m_TileSpriteIndex: 101
      m_TileMatrixIndex: 0
      m_TileColorIndex: 0
      m_TileObjectToInstantiateIndex: 65535
      m_AllTileFlags: 1073741825
  - first: {x: -6, y: -6, z: 0}
    second:
      serializedVersion: 2
      m_TileIndex: 102
      m_TileSpriteIndex: 102
      m_TileMatrixIndex: 0
      m_TileColorIndex: 0
      m_TileObjectToInstantiateIndex: 65535
      m_AllTileFlags: 1073741825
  - first: {x: -5, y: -6, z: 0}
    second:
      serializedVersion: 2
      m_TileIndex: 103
      m_TileSpriteIndex: 103
      m_TileMatrixIndex: 0
      m_TileColorIndex: 0
      m_TileObjectToInstantiateIndex: 65535
      m_AllTileFlags: 1073741825
  - first: {x: -4, y: -6, z: 0}
    second:
      serializedVersion: 2
      m_TileIndex: 68
      m_TileSpriteIndex: 68
      m_TileMatrixIndex: 0
      m_TileColorIndex: 0
      m_TileObjectToInstantiateIndex: 65535
      m_AllTileFlags: 1073741825
  - first: {x: -3, y: -6, z: 0}
    second:
      serializedVersion: 2
      m_TileIndex: 69
      m_TileSpriteIndex: 69
      m_TileMatrixIndex: 0
      m_TileColorIndex: 0
      m_TileObjectToInstantiateIndex: 65535
      m_AllTileFlags: 1073741825
  - first: {x: -2, y: -6, z: 0}
    second:
      serializedVersion: 2
      m_TileIndex: 104
      m_TileSpriteIndex: 104
      m_TileMatrixIndex: 0
      m_TileColorIndex: 0
      m_TileObjectToInstantiateIndex: 65535
      m_AllTileFlags: 1073741825
  - first: {x: -1, y: -6, z: 0}
    second:
      serializedVersion: 2
      m_TileIndex: 105
      m_TileSpriteIndex: 105
      m_TileMatrixIndex: 0
      m_TileColorIndex: 0
      m_TileObjectToInstantiateIndex: 65535
      m_AllTileFlags: 1073741825
  - first: {x: 0, y: -6, z: 0}
    second:
      serializedVersion: 2
      m_TileIndex: 70
      m_TileSpriteIndex: 70
      m_TileMatrixIndex: 0
      m_TileColorIndex: 0
      m_TileObjectToInstantiateIndex: 65535
      m_AllTileFlags: 1073741825
  - first: {x: 1, y: -6, z: 0}
    second:
      serializedVersion: 2
      m_TileIndex: 71
      m_TileSpriteIndex: 71
      m_TileMatrixIndex: 0
      m_TileColorIndex: 0
      m_TileObjectToInstantiateIndex: 65535
      m_AllTileFlags: 1073741825
  - first: {x: 2, y: -6, z: 0}
    second:
      serializedVersion: 2
      m_TileIndex: 72
      m_TileSpriteIndex: 72
      m_TileMatrixIndex: 0
      m_TileColorIndex: 0
      m_TileObjectToInstantiateIndex: 65535
      m_AllTileFlags: 1073741825
  - first: {x: 3, y: -6, z: 0}
    second:
      serializedVersion: 2
      m_TileIndex: 73
      m_TileSpriteIndex: 73
      m_TileMatrixIndex: 0
      m_TileColorIndex: 0
      m_TileObjectToInstantiateIndex: 65535
      m_AllTileFlags: 1073741825
  - first: {x: 4, y: -6, z: 0}
    second:
      serializedVersion: 2
      m_TileIndex: 74
      m_TileSpriteIndex: 74
      m_TileMatrixIndex: 0
      m_TileColorIndex: 0
      m_TileObjectToInstantiateIndex: 65535
      m_AllTileFlags: 1073741825
  - first: {x: -5, y: -5, z: 0}
    second:
      serializedVersion: 2
      m_TileIndex: 99
      m_TileSpriteIndex: 99
      m_TileMatrixIndex: 0
      m_TileColorIndex: 0
      m_TileObjectToInstantiateIndex: 65535
      m_AllTileFlags: 1073741825
  - first: {x: -4, y: -5, z: 0}
    second:
      serializedVersion: 2
      m_TileIndex: 59
      m_TileSpriteIndex: 59
      m_TileMatrixIndex: 0
      m_TileColorIndex: 0
      m_TileObjectToInstantiateIndex: 65535
      m_AllTileFlags: 1073741825
  - first: {x: -3, y: -5, z: 0}
    second:
      serializedVersion: 2
      m_TileIndex: 60
      m_TileSpriteIndex: 60
      m_TileMatrixIndex: 0
      m_TileColorIndex: 0
      m_TileObjectToInstantiateIndex: 65535
      m_AllTileFlags: 1073741825
  - first: {x: -2, y: -5, z: 0}
    second:
      serializedVersion: 2
      m_TileIndex: 61
      m_TileSpriteIndex: 61
      m_TileMatrixIndex: 0
      m_TileColorIndex: 0
      m_TileObjectToInstantiateIndex: 65535
      m_AllTileFlags: 1073741825
  - first: {x: -1, y: -5, z: 0}
    second:
      serializedVersion: 2
      m_TileIndex: 62
      m_TileSpriteIndex: 62
      m_TileMatrixIndex: 0
      m_TileColorIndex: 0
      m_TileObjectToInstantiateIndex: 65535
      m_AllTileFlags: 1073741825
  - first: {x: 0, y: -5, z: 0}
    second:
      serializedVersion: 2
      m_TileIndex: 63
      m_TileSpriteIndex: 63
      m_TileMatrixIndex: 0
      m_TileColorIndex: 0
      m_TileObjectToInstantiateIndex: 65535
      m_AllTileFlags: 1073741825
  - first: {x: 1, y: -5, z: 0}
    second:
      serializedVersion: 2
      m_TileIndex: 64
      m_TileSpriteIndex: 64
      m_TileMatrixIndex: 0
      m_TileColorIndex: 0
      m_TileObjectToInstantiateIndex: 65535
      m_AllTileFlags: 1073741825
  - first: {x: 2, y: -5, z: 0}
    second:
      serializedVersion: 2
      m_TileIndex: 65
      m_TileSpriteIndex: 65
      m_TileMatrixIndex: 0
      m_TileColorIndex: 0
      m_TileObjectToInstantiateIndex: 65535
      m_AllTileFlags: 1073741825
  - first: {x: 3, y: -5, z: 0}
    second:
      serializedVersion: 2
      m_TileIndex: 66
      m_TileSpriteIndex: 66
      m_TileMatrixIndex: 0
      m_TileColorIndex: 0
      m_TileObjectToInstantiateIndex: 65535
      m_AllTileFlags: 1073741825
  - first: {x: 4, y: -5, z: 0}
    second:
      serializedVersion: 2
      m_TileIndex: 67
      m_TileSpriteIndex: 67
      m_TileMatrixIndex: 0
      m_TileColorIndex: 0
      m_TileObjectToInstantiateIndex: 65535
      m_AllTileFlags: 1073741825
  - first: {x: -8, y: -4, z: 0}
    second:
      serializedVersion: 2
      m_TileIndex: 96
      m_TileSpriteIndex: 96
      m_TileMatrixIndex: 0
      m_TileColorIndex: 0
      m_TileObjectToInstantiateIndex: 65535
      m_AllTileFlags: 1073741825
  - first: {x: -7, y: -4, z: 0}
    second:
      serializedVersion: 2
      m_TileIndex: 97
      m_TileSpriteIndex: 97
      m_TileMatrixIndex: 0
      m_TileColorIndex: 0
      m_TileObjectToInstantiateIndex: 65535
      m_AllTileFlags: 1073741825
  - first: {x: -6, y: -4, z: 0}
    second:
      serializedVersion: 2
      m_TileIndex: 98
      m_TileSpriteIndex: 98
      m_TileMatrixIndex: 0
      m_TileColorIndex: 0
      m_TileObjectToInstantiateIndex: 65535
      m_AllTileFlags: 1073741825
  - first: {x: -5, y: -4, z: 0}
    second:
      serializedVersion: 2
      m_TileIndex: 49
      m_TileSpriteIndex: 49
      m_TileMatrixIndex: 0
      m_TileColorIndex: 0
      m_TileObjectToInstantiateIndex: 65535
      m_AllTileFlags: 1073741825
  - first: {x: -4, y: -4, z: 0}
    second:
      serializedVersion: 2
      m_TileIndex: 50
      m_TileSpriteIndex: 50
      m_TileMatrixIndex: 0
      m_TileColorIndex: 0
      m_TileObjectToInstantiateIndex: 65535
      m_AllTileFlags: 1073741825
  - first: {x: -3, y: -4, z: 0}
    second:
      serializedVersion: 2
      m_TileIndex: 51
      m_TileSpriteIndex: 51
      m_TileMatrixIndex: 0
      m_TileColorIndex: 0
      m_TileObjectToInstantiateIndex: 65535
      m_AllTileFlags: 1073741825
  - first: {x: -2, y: -4, z: 0}
    second:
      serializedVersion: 2
      m_TileIndex: 52
      m_TileSpriteIndex: 52
      m_TileMatrixIndex: 0
      m_TileColorIndex: 0
      m_TileObjectToInstantiateIndex: 65535
      m_AllTileFlags: 1073741825
  - first: {x: -1, y: -4, z: 0}
    second:
      serializedVersion: 2
      m_TileIndex: 53
      m_TileSpriteIndex: 53
      m_TileMatrixIndex: 0
      m_TileColorIndex: 0
      m_TileObjectToInstantiateIndex: 65535
      m_AllTileFlags: 1073741825
  - first: {x: 0, y: -4, z: 0}
    second:
      serializedVersion: 2
      m_TileIndex: 54
      m_TileSpriteIndex: 54
      m_TileMatrixIndex: 0
      m_TileColorIndex: 0
      m_TileObjectToInstantiateIndex: 65535
      m_AllTileFlags: 1073741825
  - first: {x: 1, y: -4, z: 0}
    second:
      serializedVersion: 2
      m_TileIndex: 55
      m_TileSpriteIndex: 55
      m_TileMatrixIndex: 0
      m_TileColorIndex: 0
      m_TileObjectToInstantiateIndex: 65535
      m_AllTileFlags: 1073741825
  - first: {x: 2, y: -4, z: 0}
    second:
      serializedVersion: 2
      m_TileIndex: 56
      m_TileSpriteIndex: 56
      m_TileMatrixIndex: 0
      m_TileColorIndex: 0
      m_TileObjectToInstantiateIndex: 65535
      m_AllTileFlags: 1073741825
  - first: {x: 3, y: -4, z: 0}
    second:
      serializedVersion: 2
      m_TileIndex: 57
      m_TileSpriteIndex: 57
      m_TileMatrixIndex: 0
      m_TileColorIndex: 0
      m_TileObjectToInstantiateIndex: 65535
      m_AllTileFlags: 1073741825
  - first: {x: 4, y: -4, z: 0}
    second:
      serializedVersion: 2
      m_TileIndex: 58
      m_TileSpriteIndex: 58
      m_TileMatrixIndex: 0
      m_TileColorIndex: 0
      m_TileObjectToInstantiateIndex: 65535
      m_AllTileFlags: 1073741825
  - first: {x: -6, y: -3, z: 0}
    second:
      serializedVersion: 2
      m_TileIndex: 92
      m_TileSpriteIndex: 92
      m_TileMatrixIndex: 0
      m_TileColorIndex: 0
      m_TileObjectToInstantiateIndex: 65535
      m_AllTileFlags: 1073741825
  - first: {x: -5, y: -3, z: 0}
    second:
      serializedVersion: 2
      m_TileIndex: 93
      m_TileSpriteIndex: 93
      m_TileMatrixIndex: 0
      m_TileColorIndex: 0
      m_TileObjectToInstantiateIndex: 65535
      m_AllTileFlags: 1073741825
  - first: {x: -4, y: -3, z: 0}
    second:
      serializedVersion: 2
      m_TileIndex: 94
      m_TileSpriteIndex: 94
      m_TileMatrixIndex: 0
      m_TileColorIndex: 0
      m_TileObjectToInstantiateIndex: 65535
      m_AllTileFlags: 1073741825
  - first: {x: -3, y: -3, z: 0}
    second:
      serializedVersion: 2
      m_TileIndex: 95
      m_TileSpriteIndex: 95
      m_TileMatrixIndex: 0
      m_TileColorIndex: 0
      m_TileObjectToInstantiateIndex: 65535
      m_AllTileFlags: 1073741825
  - first: {x: -2, y: -3, z: 0}
    second:
      serializedVersion: 2
      m_TileIndex: 42
      m_TileSpriteIndex: 42
      m_TileMatrixIndex: 0
      m_TileColorIndex: 0
      m_TileObjectToInstantiateIndex: 65535
      m_AllTileFlags: 1073741825
  - first: {x: -1, y: -3, z: 0}
    second:
      serializedVersion: 2
      m_TileIndex: 43
      m_TileSpriteIndex: 43
      m_TileMatrixIndex: 0
      m_TileColorIndex: 0
      m_TileObjectToInstantiateIndex: 65535
      m_AllTileFlags: 1073741825
  - first: {x: 0, y: -3, z: 0}
    second:
      serializedVersion: 2
      m_TileIndex: 44
      m_TileSpriteIndex: 44
      m_TileMatrixIndex: 0
      m_TileColorIndex: 0
      m_TileObjectToInstantiateIndex: 65535
      m_AllTileFlags: 1073741825
  - first: {x: 1, y: -3, z: 0}
    second:
      serializedVersion: 2
      m_TileIndex: 45
      m_TileSpriteIndex: 45
      m_TileMatrixIndex: 0
      m_TileColorIndex: 0
      m_TileObjectToInstantiateIndex: 65535
      m_AllTileFlags: 1073741825
  - first: {x: 2, y: -3, z: 0}
    second:
      serializedVersion: 2
      m_TileIndex: 46
      m_TileSpriteIndex: 46
      m_TileMatrixIndex: 0
      m_TileColorIndex: 0
      m_TileObjectToInstantiateIndex: 65535
      m_AllTileFlags: 1073741825
  - first: {x: 3, y: -3, z: 0}
    second:
      serializedVersion: 2
      m_TileIndex: 47
      m_TileSpriteIndex: 47
      m_TileMatrixIndex: 0
      m_TileColorIndex: 0
      m_TileObjectToInstantiateIndex: 65535
      m_AllTileFlags: 1073741825
  - first: {x: 4, y: -3, z: 0}
    second:
      serializedVersion: 2
      m_TileIndex: 48
      m_TileSpriteIndex: 48
      m_TileMatrixIndex: 0
      m_TileColorIndex: 0
      m_TileObjectToInstantiateIndex: 65535
      m_AllTileFlags: 1073741825
  - first: {x: -8, y: -2, z: 0}
    second:
      serializedVersion: 2
      m_TileIndex: 90
      m_TileSpriteIndex: 90
      m_TileMatrixIndex: 0
      m_TileColorIndex: 0
      m_TileObjectToInstantiateIndex: 65535
      m_AllTileFlags: 1073741825
  - first: {x: -6, y: -2, z: 0}
    second:
      serializedVersion: 2
      m_TileIndex: 91
      m_TileSpriteIndex: 91
      m_TileMatrixIndex: 0
      m_TileColorIndex: 0
      m_TileObjectToInstantiateIndex: 65535
      m_AllTileFlags: 1073741825
  - first: {x: -5, y: -2, z: 0}
    second:
      serializedVersion: 2
      m_TileIndex: 32
      m_TileSpriteIndex: 32
      m_TileMatrixIndex: 0
      m_TileColorIndex: 0
      m_TileObjectToInstantiateIndex: 65535
      m_AllTileFlags: 1073741825
  - first: {x: -4, y: -2, z: 0}
    second:
      serializedVersion: 2
      m_TileIndex: 33
      m_TileSpriteIndex: 33
      m_TileMatrixIndex: 0
      m_TileColorIndex: 0
      m_TileObjectToInstantiateIndex: 65535
      m_AllTileFlags: 1073741825
  - first: {x: -3, y: -2, z: 0}
    second:
      serializedVersion: 2
      m_TileIndex: 34
      m_TileSpriteIndex: 34
      m_TileMatrixIndex: 0
      m_TileColorIndex: 0
      m_TileObjectToInstantiateIndex: 65535
      m_AllTileFlags: 1073741825
  - first: {x: -2, y: -2, z: 0}
    second:
      serializedVersion: 2
      m_TileIndex: 35
      m_TileSpriteIndex: 35
      m_TileMatrixIndex: 0
      m_TileColorIndex: 0
      m_TileObjectToInstantiateIndex: 65535
      m_AllTileFlags: 1073741825
  - first: {x: -1, y: -2, z: 0}
    second:
      serializedVersion: 2
      m_TileIndex: 36
      m_TileSpriteIndex: 36
      m_TileMatrixIndex: 0
      m_TileColorIndex: 0
      m_TileObjectToInstantiateIndex: 65535
      m_AllTileFlags: 1073741825
  - first: {x: 0, y: -2, z: 0}
    second:
      serializedVersion: 2
      m_TileIndex: 37
      m_TileSpriteIndex: 37
      m_TileMatrixIndex: 0
      m_TileColorIndex: 0
      m_TileObjectToInstantiateIndex: 65535
      m_AllTileFlags: 1073741825
  - first: {x: 1, y: -2, z: 0}
    second:
      serializedVersion: 2
      m_TileIndex: 38
      m_TileSpriteIndex: 38
      m_TileMatrixIndex: 0
      m_TileColorIndex: 0
      m_TileObjectToInstantiateIndex: 65535
      m_AllTileFlags: 1073741825
  - first: {x: 2, y: -2, z: 0}
    second:
      serializedVersion: 2
      m_TileIndex: 39
      m_TileSpriteIndex: 39
      m_TileMatrixIndex: 0
      m_TileColorIndex: 0
      m_TileObjectToInstantiateIndex: 65535
      m_AllTileFlags: 1073741825
  - first: {x: 3, y: -2, z: 0}
    second:
      serializedVersion: 2
      m_TileIndex: 40
      m_TileSpriteIndex: 40
      m_TileMatrixIndex: 0
      m_TileColorIndex: 0
      m_TileObjectToInstantiateIndex: 65535
      m_AllTileFlags: 1073741825
  - first: {x: 4, y: -2, z: 0}
    second:
      serializedVersion: 2
      m_TileIndex: 41
      m_TileSpriteIndex: 41
      m_TileMatrixIndex: 0
      m_TileColorIndex: 0
      m_TileObjectToInstantiateIndex: 65535
      m_AllTileFlags: 1073741825
  - first: {x: -8, y: -1, z: 0}
    second:
      serializedVersion: 2
      m_TileIndex: 87
      m_TileSpriteIndex: 87
      m_TileMatrixIndex: 0
      m_TileColorIndex: 0
      m_TileObjectToInstantiateIndex: 65535
      m_AllTileFlags: 1073741825
  - first: {x: -5, y: -1, z: 0}
    second:
      serializedVersion: 2
      m_TileIndex: 88
      m_TileSpriteIndex: 88
      m_TileMatrixIndex: 0
      m_TileColorIndex: 0
      m_TileObjectToInstantiateIndex: 65535
      m_AllTileFlags: 1073741825
  - first: {x: -4, y: -1, z: 0}
    second:
      serializedVersion: 2
      m_TileIndex: 89
      m_TileSpriteIndex: 89
      m_TileMatrixIndex: 0
      m_TileColorIndex: 0
      m_TileObjectToInstantiateIndex: 65535
      m_AllTileFlags: 1073741825
  - first: {x: -3, y: -1, z: 0}
    second:
      serializedVersion: 2
      m_TileIndex: 25
      m_TileSpriteIndex: 24
      m_TileMatrixIndex: 0
      m_TileColorIndex: 0
      m_TileObjectToInstantiateIndex: 65535
      m_AllTileFlags: 1073741825
  - first: {x: -2, y: -1, z: 0}
    second:
      serializedVersion: 2
      m_TileIndex: 26
      m_TileSpriteIndex: 25
      m_TileMatrixIndex: 0
      m_TileColorIndex: 0
      m_TileObjectToInstantiateIndex: 65535
      m_AllTileFlags: 1073741825
  - first: {x: -1, y: -1, z: 0}
    second:
      serializedVersion: 2
      m_TileIndex: 0
      m_TileSpriteIndex: 26
      m_TileMatrixIndex: 0
      m_TileColorIndex: 0
      m_TileObjectToInstantiateIndex: 65535
      m_AllTileFlags: 1073741825
  - first: {x: 0, y: -1, z: 0}
    second:
      serializedVersion: 2
      m_TileIndex: 27
      m_TileSpriteIndex: 27
      m_TileMatrixIndex: 0
      m_TileColorIndex: 0
      m_TileObjectToInstantiateIndex: 65535
      m_AllTileFlags: 1073741825
  - first: {x: 1, y: -1, z: 0}
    second:
      serializedVersion: 2
      m_TileIndex: 28
      m_TileSpriteIndex: 28
      m_TileMatrixIndex: 0
      m_TileColorIndex: 0
      m_TileObjectToInstantiateIndex: 65535
      m_AllTileFlags: 1073741825
  - first: {x: 2, y: -1, z: 0}
    second:
      serializedVersion: 2
      m_TileIndex: 29
      m_TileSpriteIndex: 29
      m_TileMatrixIndex: 0
      m_TileColorIndex: 0
      m_TileObjectToInstantiateIndex: 65535
      m_AllTileFlags: 1073741825
  - first: {x: 3, y: -1, z: 0}
    second:
      serializedVersion: 2
      m_TileIndex: 30
      m_TileSpriteIndex: 30
      m_TileMatrixIndex: 0
      m_TileColorIndex: 0
      m_TileObjectToInstantiateIndex: 65535
      m_AllTileFlags: 1073741825
  - first: {x: 4, y: -1, z: 0}
    second:
      serializedVersion: 2
      m_TileIndex: 31
      m_TileSpriteIndex: 31
      m_TileMatrixIndex: 0
      m_TileColorIndex: 0
      m_TileObjectToInstantiateIndex: 65535
      m_AllTileFlags: 1073741825
  - first: {x: -5, y: 0, z: 0}
    second:
      serializedVersion: 2
      m_TileIndex: 16
      m_TileSpriteIndex: 15
      m_TileMatrixIndex: 0
      m_TileColorIndex: 0
      m_TileObjectToInstantiateIndex: 65535
      m_AllTileFlags: 1073741825
  - first: {x: -4, y: 0, z: 0}
    second:
      serializedVersion: 2
      m_TileIndex: 86
      m_TileSpriteIndex: 86
      m_TileMatrixIndex: 0
      m_TileColorIndex: 0
      m_TileObjectToInstantiateIndex: 65535
      m_AllTileFlags: 1073741825
  - first: {x: -3, y: 0, z: 0}
    second:
      serializedVersion: 2
      m_TileIndex: 17
      m_TileSpriteIndex: 16
      m_TileMatrixIndex: 0
      m_TileColorIndex: 0
      m_TileObjectToInstantiateIndex: 65535
      m_AllTileFlags: 1073741825
  - first: {x: -2, y: 0, z: 0}
    second:
      serializedVersion: 2
      m_TileIndex: 18
      m_TileSpriteIndex: 17
      m_TileMatrixIndex: 0
      m_TileColorIndex: 0
      m_TileObjectToInstantiateIndex: 65535
      m_AllTileFlags: 1073741825
  - first: {x: -1, y: 0, z: 0}
    second:
      serializedVersion: 2
      m_TileIndex: 19
      m_TileSpriteIndex: 18
      m_TileMatrixIndex: 0
      m_TileColorIndex: 0
      m_TileObjectToInstantiateIndex: 65535
      m_AllTileFlags: 1073741825
  - first: {x: 0, y: 0, z: 0}
    second:
      serializedVersion: 2
      m_TileIndex: 20
      m_TileSpriteIndex: 19
      m_TileMatrixIndex: 0
      m_TileColorIndex: 0
      m_TileObjectToInstantiateIndex: 65535
      m_AllTileFlags: 1073741825
  - first: {x: 1, y: 0, z: 0}
    second:
      serializedVersion: 2
      m_TileIndex: 21
      m_TileSpriteIndex: 20
      m_TileMatrixIndex: 0
      m_TileColorIndex: 0
      m_TileObjectToInstantiateIndex: 65535
      m_AllTileFlags: 1073741825
  - first: {x: 2, y: 0, z: 0}
    second:
      serializedVersion: 2
      m_TileIndex: 22
      m_TileSpriteIndex: 21
      m_TileMatrixIndex: 0
      m_TileColorIndex: 0
      m_TileObjectToInstantiateIndex: 65535
      m_AllTileFlags: 1073741825
  - first: {x: 3, y: 0, z: 0}
    second:
      serializedVersion: 2
      m_TileIndex: 23
      m_TileSpriteIndex: 22
      m_TileMatrixIndex: 0
      m_TileColorIndex: 0
      m_TileObjectToInstantiateIndex: 65535
      m_AllTileFlags: 1073741825
  - first: {x: 4, y: 0, z: 0}
    second:
      serializedVersion: 2
      m_TileIndex: 24
      m_TileSpriteIndex: 23
      m_TileMatrixIndex: 0
      m_TileColorIndex: 0
      m_TileObjectToInstantiateIndex: 65535
      m_AllTileFlags: 1073741825
  - first: {x: -5, y: 1, z: 0}
    second:
      serializedVersion: 2
      m_TileIndex: 8
      m_TileSpriteIndex: 7
      m_TileMatrixIndex: 0
      m_TileColorIndex: 0
      m_TileObjectToInstantiateIndex: 65535
      m_AllTileFlags: 1073741825
  - first: {x: -2, y: 1, z: 0}
    second:
      serializedVersion: 2
      m_TileIndex: 9
      m_TileSpriteIndex: 8
      m_TileMatrixIndex: 0
      m_TileColorIndex: 0
      m_TileObjectToInstantiateIndex: 65535
      m_AllTileFlags: 1073741825
  - first: {x: -1, y: 1, z: 0}
    second:
      serializedVersion: 2
      m_TileIndex: 10
      m_TileSpriteIndex: 9
      m_TileMatrixIndex: 0
      m_TileColorIndex: 0
      m_TileObjectToInstantiateIndex: 65535
      m_AllTileFlags: 1073741825
  - first: {x: 0, y: 1, z: 0}
    second:
      serializedVersion: 2
      m_TileIndex: 11
      m_TileSpriteIndex: 10
      m_TileMatrixIndex: 0
      m_TileColorIndex: 0
      m_TileObjectToInstantiateIndex: 65535
      m_AllTileFlags: 1073741825
  - first: {x: 1, y: 1, z: 0}
    second:
      serializedVersion: 2
      m_TileIndex: 12
      m_TileSpriteIndex: 11
      m_TileMatrixIndex: 0
      m_TileColorIndex: 0
      m_TileObjectToInstantiateIndex: 65535
      m_AllTileFlags: 1073741825
  - first: {x: 2, y: 1, z: 0}
    second:
      serializedVersion: 2
      m_TileIndex: 13
      m_TileSpriteIndex: 12
      m_TileMatrixIndex: 0
      m_TileColorIndex: 0
      m_TileObjectToInstantiateIndex: 65535
      m_AllTileFlags: 1073741825
  - first: {x: 3, y: 1, z: 0}
    second:
      serializedVersion: 2
      m_TileIndex: 14
      m_TileSpriteIndex: 13
      m_TileMatrixIndex: 0
      m_TileColorIndex: 0
      m_TileObjectToInstantiateIndex: 65535
      m_AllTileFlags: 1073741825
  - first: {x: 4, y: 1, z: 0}
    second:
      serializedVersion: 2
      m_TileIndex: 15
      m_TileSpriteIndex: 14
      m_TileMatrixIndex: 0
      m_TileColorIndex: 0
      m_TileObjectToInstantiateIndex: 65535
      m_AllTileFlags: 1073741825
  - first: {x: -2, y: 2, z: 0}
    second:
      serializedVersion: 2
      m_TileIndex: 1
      m_TileSpriteIndex: 0
      m_TileMatrixIndex: 0
      m_TileColorIndex: 0
      m_TileObjectToInstantiateIndex: 65535
      m_AllTileFlags: 1073741825
  - first: {x: -1, y: 2, z: 0}
    second:
      serializedVersion: 2
      m_TileIndex: 2
      m_TileSpriteIndex: 1
      m_TileMatrixIndex: 0
      m_TileColorIndex: 0
      m_TileObjectToInstantiateIndex: 65535
      m_AllTileFlags: 1073741825
  - first: {x: 0, y: 2, z: 0}
    second:
      serializedVersion: 2
      m_TileIndex: 3
      m_TileSpriteIndex: 2
      m_TileMatrixIndex: 0
      m_TileColorIndex: 0
      m_TileObjectToInstantiateIndex: 65535
      m_AllTileFlags: 1073741825
  - first: {x: 1, y: 2, z: 0}
    second:
      serializedVersion: 2
      m_TileIndex: 4
      m_TileSpriteIndex: 3
      m_TileMatrixIndex: 0
      m_TileColorIndex: 0
      m_TileObjectToInstantiateIndex: 65535
      m_AllTileFlags: 1073741825
  - first: {x: 2, y: 2, z: 0}
    second:
      serializedVersion: 2
      m_TileIndex: 5
      m_TileSpriteIndex: 4
      m_TileMatrixIndex: 0
      m_TileColorIndex: 0
      m_TileObjectToInstantiateIndex: 65535
      m_AllTileFlags: 1073741825
  - first: {x: 3, y: 2, z: 0}
    second:
      serializedVersion: 2
      m_TileIndex: 6
      m_TileSpriteIndex: 5
      m_TileMatrixIndex: 0
      m_TileColorIndex: 0
      m_TileObjectToInstantiateIndex: 65535
      m_AllTileFlags: 1073741825
  - first: {x: 4, y: 2, z: 0}
    second:
      serializedVersion: 2
      m_TileIndex: 7
      m_TileSpriteIndex: 6
      m_TileMatrixIndex: 0
      m_TileColorIndex: 0
      m_TileObjectToInstantiateIndex: 65535
      m_AllTileFlags: 1073741825
  m_AnimatedTiles: {}
  m_TileAssetArray:
  - m_RefCount: 1
    m_Data: {fileID: 11400000, guid: 3347905664f136c46a29e0850c0a48bb, type: 2}
  - m_RefCount: 1
    m_Data: {fileID: 11400000, guid: 31f8a882d578476449cd741d2ecd3b25, type: 2}
  - m_RefCount: 1
    m_Data: {fileID: 11400000, guid: 4057468bf34b252478fbf3491003ef36, type: 2}
  - m_RefCount: 1
    m_Data: {fileID: 11400000, guid: 2c849398ac2f8fe40b9dcf787ef87989, type: 2}
  - m_RefCount: 1
    m_Data: {fileID: 11400000, guid: 6fb6985ca9cbe374085092e3d356bc2d, type: 2}
  - m_RefCount: 1
    m_Data: {fileID: 11400000, guid: 1e8fa1962fa34024998e3fa3c2045761, type: 2}
  - m_RefCount: 1
    m_Data: {fileID: 11400000, guid: 8095257f494f1dd4b99ff0b6ce9808dc, type: 2}
  - m_RefCount: 1
    m_Data: {fileID: 11400000, guid: 908cf5a9e4d157749b76be1f972e565f, type: 2}
  - m_RefCount: 1
    m_Data: {fileID: 11400000, guid: d66de951bf1991d4ab563c85520ce1f3, type: 2}
  - m_RefCount: 1
    m_Data: {fileID: 11400000, guid: 74304973e2fb1624cb4a171ef4daf680, type: 2}
  - m_RefCount: 1
    m_Data: {fileID: 11400000, guid: 33df5056da720ed448c84cd6064cab1c, type: 2}
  - m_RefCount: 1
    m_Data: {fileID: 11400000, guid: 48bcf3bf0e301254b8b5cf76d248da4a, type: 2}
  - m_RefCount: 1
    m_Data: {fileID: 11400000, guid: c6c05a24a0e60ba4a8d656ba1af8e258, type: 2}
  - m_RefCount: 1
    m_Data: {fileID: 11400000, guid: 42b093d0bce59d647aa3daacc75890a5, type: 2}
  - m_RefCount: 1
    m_Data: {fileID: 11400000, guid: 0d741446b08efbb4286be54c582b5256, type: 2}
  - m_RefCount: 1
    m_Data: {fileID: 11400000, guid: 152ddcb3743ced2428993f5c9732c596, type: 2}
  - m_RefCount: 1
    m_Data: {fileID: 11400000, guid: f79fe032883cc694c84bbb76b245dce5, type: 2}
  - m_RefCount: 1
    m_Data: {fileID: 11400000, guid: 54aadf44dd7cc3b42b46f230cd35ed37, type: 2}
  - m_RefCount: 1
    m_Data: {fileID: 11400000, guid: bb2abdeda2142c149ae787afb671333f, type: 2}
  - m_RefCount: 1
    m_Data: {fileID: 11400000, guid: b0d212a9d49a938418c79ffbf9e464f6, type: 2}
  - m_RefCount: 1
    m_Data: {fileID: 11400000, guid: 0b3dabedb308a3449a68abafa5a4082e, type: 2}
  - m_RefCount: 1
    m_Data: {fileID: 11400000, guid: db84c9643b0921e48a91eeb7991a4428, type: 2}
  - m_RefCount: 1
    m_Data: {fileID: 11400000, guid: 458dbb6f8bb6d884e97b21fd4b2cdbeb, type: 2}
  - m_RefCount: 1
    m_Data: {fileID: 11400000, guid: 233f60cb3b080494997f6f78ca47e436, type: 2}
  - m_RefCount: 1
    m_Data: {fileID: 11400000, guid: 9d8db7f78c2f7ca4283c90473dba8ad6, type: 2}
  - m_RefCount: 1
    m_Data: {fileID: 11400000, guid: b965b3ceced35934189b147c296e31e7, type: 2}
  - m_RefCount: 1
    m_Data: {fileID: 11400000, guid: 8f911f42a6dc7064c8b1820bc3938fe8, type: 2}
  - m_RefCount: 1
    m_Data: {fileID: 11400000, guid: 3d4742a851fd7a743be3af14df28606c, type: 2}
  - m_RefCount: 1
    m_Data: {fileID: 11400000, guid: 013cdd7171bd736408ab075f85b624b5, type: 2}
  - m_RefCount: 1
    m_Data: {fileID: 11400000, guid: 77735e5c768a2564ab09ae9bdfef4e5c, type: 2}
  - m_RefCount: 1
    m_Data: {fileID: 11400000, guid: 9f17b0c3f4906c5419888b3ca82c8a2a, type: 2}
  - m_RefCount: 1
    m_Data: {fileID: 11400000, guid: 4ab8669aed05caa4280123d4d596c8dc, type: 2}
  - m_RefCount: 1
    m_Data: {fileID: 11400000, guid: 03193852df84b7f41b72cb70bd35c8ed, type: 2}
  - m_RefCount: 1
    m_Data: {fileID: 11400000, guid: 1d30125e1699eb840ae9784c4909b7d8, type: 2}
  - m_RefCount: 1
    m_Data: {fileID: 11400000, guid: e40d77e086b7f2f46a48fc8cffc114c2, type: 2}
  - m_RefCount: 1
    m_Data: {fileID: 11400000, guid: f225ca27da9f1074692134f529daa4de, type: 2}
  - m_RefCount: 1
    m_Data: {fileID: 11400000, guid: 0c944e81f39917849b6e070948eedc4c, type: 2}
  - m_RefCount: 1
    m_Data: {fileID: 11400000, guid: 61f894456bb5c984eaf906c8560938bc, type: 2}
  - m_RefCount: 1
    m_Data: {fileID: 11400000, guid: 12a380553e268f444ab980c23af86246, type: 2}
  - m_RefCount: 1
    m_Data: {fileID: 11400000, guid: 8d5a7b9d3c17e6544b8853c511ece8a3, type: 2}
  - m_RefCount: 1
    m_Data: {fileID: 11400000, guid: 9ae20cc0091ffcb448b62544dde42018, type: 2}
  - m_RefCount: 1
    m_Data: {fileID: 11400000, guid: f65cca8cd88e45b46a0e4f2c54989953, type: 2}
  - m_RefCount: 1
    m_Data: {fileID: 11400000, guid: 7e2b5b83414e0e244ac3da7cbe5ff705, type: 2}
  - m_RefCount: 1
    m_Data: {fileID: 11400000, guid: 8ab5d275fae30684a98116e3bd82b34f, type: 2}
  - m_RefCount: 1
    m_Data: {fileID: 11400000, guid: 4f2d8cfb3c675a4478dffef1fef043b3, type: 2}
  - m_RefCount: 1
    m_Data: {fileID: 11400000, guid: f4b43b48c7210ea49a4dfdba3284b099, type: 2}
  - m_RefCount: 1
    m_Data: {fileID: 11400000, guid: 2f09b3c77d49d6741bce40f179ab0fa9, type: 2}
  - m_RefCount: 1
    m_Data: {fileID: 11400000, guid: 2e36a33ec27140c42a981d264bb73d6e, type: 2}
  - m_RefCount: 1
    m_Data: {fileID: 11400000, guid: e2c3c92234b4c2145898084ad1101197, type: 2}
  - m_RefCount: 1
    m_Data: {fileID: 11400000, guid: 67e14acb0e9a141479b47351f2f00b1e, type: 2}
  - m_RefCount: 1
    m_Data: {fileID: 11400000, guid: c46a89de32a4c3846b6c581d3fbad98b, type: 2}
  - m_RefCount: 1
    m_Data: {fileID: 11400000, guid: de9e0e586d370c141b2b79a7ab462d43, type: 2}
  - m_RefCount: 1
    m_Data: {fileID: 11400000, guid: 7412c6c8e3b583946980d108e8483609, type: 2}
  - m_RefCount: 1
    m_Data: {fileID: 11400000, guid: fee1eb85ed28f0548b9570da089f35fc, type: 2}
  - m_RefCount: 1
    m_Data: {fileID: 11400000, guid: 6a9be691d9cdf8443a287df2c56e7de3, type: 2}
  - m_RefCount: 1
    m_Data: {fileID: 11400000, guid: 14fb4a8106079754085774eae72227ea, type: 2}
  - m_RefCount: 1
    m_Data: {fileID: 11400000, guid: 456a86252d875b8429ffed92252c6aed, type: 2}
  - m_RefCount: 1
    m_Data: {fileID: 11400000, guid: 11ee409ee3855cc4b908bf7d43b7b5bd, type: 2}
  - m_RefCount: 1
    m_Data: {fileID: 11400000, guid: 087042ce3ed3f334c95f81555984325e, type: 2}
  - m_RefCount: 1
    m_Data: {fileID: 11400000, guid: 598e01c036276854bb4422e638390e1c, type: 2}
  - m_RefCount: 1
    m_Data: {fileID: 11400000, guid: 72e5b2b93f6ecea4fb73f7a05935ef72, type: 2}
  - m_RefCount: 1
    m_Data: {fileID: 11400000, guid: 2e615c4cd17ce274893015d1b1806463, type: 2}
  - m_RefCount: 1
    m_Data: {fileID: 11400000, guid: 33f86ac48df2dfa41aa46d2e990a0f74, type: 2}
  - m_RefCount: 1
    m_Data: {fileID: 11400000, guid: f5be261f244745244ab629588834c5e6, type: 2}
  - m_RefCount: 1
    m_Data: {fileID: 11400000, guid: 2130258f204a35641b7507fe7f315116, type: 2}
  - m_RefCount: 1
    m_Data: {fileID: 11400000, guid: 70b4028f7041fb146999c99c096fc819, type: 2}
  - m_RefCount: 1
    m_Data: {fileID: 11400000, guid: 1f3eaec201f99a54e91d858372773086, type: 2}
  - m_RefCount: 1
    m_Data: {fileID: 11400000, guid: fb1c0495580e0be4fb2e655ed934a058, type: 2}
  - m_RefCount: 1
    m_Data: {fileID: 11400000, guid: 06c9150238d975844b3e22792bc0eb80, type: 2}
  - m_RefCount: 1
    m_Data: {fileID: 11400000, guid: 28e9fca3a08559042b9c809d7566e00b, type: 2}
  - m_RefCount: 1
    m_Data: {fileID: 11400000, guid: aaaf20198cb8aa0449684693a01057c3, type: 2}
  - m_RefCount: 1
    m_Data: {fileID: 11400000, guid: 2dc3437f610025a4f8fd7ff5d3a92024, type: 2}
  - m_RefCount: 1
    m_Data: {fileID: 11400000, guid: 5d45a1ea0ee217649a4f9836aacdce60, type: 2}
  - m_RefCount: 1
    m_Data: {fileID: 11400000, guid: dae462152099b5447b82b867422b84ac, type: 2}
  - m_RefCount: 1
    m_Data: {fileID: 11400000, guid: 34c86aaa314559a40811ff85469c68bc, type: 2}
  - m_RefCount: 1
    m_Data: {fileID: 11400000, guid: ecb71bda9bd412f4f8eb36b9ad68bb97, type: 2}
  - m_RefCount: 1
    m_Data: {fileID: 11400000, guid: b0c5aa66bead4864d89de687517e28f0, type: 2}
  - m_RefCount: 1
    m_Data: {fileID: 11400000, guid: e8702a2923854fd4eb29d4679f43cc05, type: 2}
  - m_RefCount: 1
    m_Data: {fileID: 11400000, guid: 9c3923a178c49264da4947340aa06174, type: 2}
  - m_RefCount: 1
    m_Data: {fileID: 11400000, guid: ed23f9bd9c27c4f43b5cccdd503a7c58, type: 2}
  - m_RefCount: 1
    m_Data: {fileID: 11400000, guid: d378ffc912a59c9458f489285d098e49, type: 2}
  - m_RefCount: 1
    m_Data: {fileID: 11400000, guid: 1780db1c858406a4592306eb77a43d6e, type: 2}
  - m_RefCount: 1
    m_Data: {fileID: 11400000, guid: 98f3f2abebf22074ea8dfa8c17c01fc6, type: 2}
  - m_RefCount: 1
    m_Data: {fileID: 11400000, guid: cbf7a9a16ce6744479b9b016603ea1f8, type: 2}
  - m_RefCount: 1
    m_Data: {fileID: 11400000, guid: 9808cefa5cfe420478b1329c8901cc4f, type: 2}
  - m_RefCount: 1
    m_Data: {fileID: 11400000, guid: fe7c5341b03a45e41896f9b9dd4c2198, type: 2}
  - m_RefCount: 1
    m_Data: {fileID: 11400000, guid: f18dc246a9effc64abe76e061dde9a94, type: 2}
  - m_RefCount: 1
    m_Data: {fileID: 11400000, guid: 569ab403a904404469dfe77e4b45fc33, type: 2}
  - m_RefCount: 1
    m_Data: {fileID: 11400000, guid: 84d76d97edb943b40a4490dc7b66e71b, type: 2}
  - m_RefCount: 1
    m_Data: {fileID: 11400000, guid: a92f600c932ee0e47996e53948ac5111, type: 2}
  - m_RefCount: 1
    m_Data: {fileID: 11400000, guid: 347cb95e30674734cbe4f5fa93dc7417, type: 2}
  - m_RefCount: 1
    m_Data: {fileID: 11400000, guid: 46f2d6e7ff80f98438bc8e120f9bf490, type: 2}
  - m_RefCount: 1
    m_Data: {fileID: 11400000, guid: 680269700a790dc4bbc179e8ed0e0cb1, type: 2}
  - m_RefCount: 1
    m_Data: {fileID: 11400000, guid: 5868d65e711271a428f5ff5e33d0d28d, type: 2}
  - m_RefCount: 1
    m_Data: {fileID: 11400000, guid: cfd68ac6519912c4d957399257d217f3, type: 2}
  - m_RefCount: 1
    m_Data: {fileID: 11400000, guid: 54b08108a53735445be3df54d7243b42, type: 2}
  - m_RefCount: 1
    m_Data: {fileID: 11400000, guid: 2e586aff77cb7194699515f33040ce4d, type: 2}
  - m_RefCount: 1
    m_Data: {fileID: 11400000, guid: 2c165006913c00e4c9d41017584823e0, type: 2}
  - m_RefCount: 1
    m_Data: {fileID: 11400000, guid: cef9176e7916c8b4eab50c3a921562c6, type: 2}
  - m_RefCount: 1
    m_Data: {fileID: 11400000, guid: 50f485bd29125ab4bbb2e4502bd8136e, type: 2}
  - m_RefCount: 1
    m_Data: {fileID: 11400000, guid: 9454cdd82b60e764a842ee52f035cf16, type: 2}
  - m_RefCount: 1
    m_Data: {fileID: 11400000, guid: 054a3afaaca57b7428761c4d2cc356ef, type: 2}
  - m_RefCount: 1
    m_Data: {fileID: 11400000, guid: 705f4e35f850814488a976cb674c3303, type: 2}
  - m_RefCount: 1
    m_Data: {fileID: 11400000, guid: 56bac3c36b833ca4aa4799f208f30405, type: 2}
  - m_RefCount: 1
    m_Data: {fileID: 11400000, guid: 2e71678e1ac3c7c4d96a97cf537a8be5, type: 2}
  - m_RefCount: 1
    m_Data: {fileID: 11400000, guid: e911f7a2bef65b142905c5cbf6922e6b, type: 2}
  - m_RefCount: 1
    m_Data: {fileID: 11400000, guid: f5f0cdf30fccc32459102d4b2bc07dce, type: 2}
  - m_RefCount: 1
    m_Data: {fileID: 11400000, guid: 610a999bdac410043809cfdb0c61c773, type: 2}
  - m_RefCount: 1
    m_Data: {fileID: 11400000, guid: 16b9673e0327c9742a2bdbfa50f4df0f, type: 2}
  - m_RefCount: 1
    m_Data: {fileID: 11400000, guid: c99bfa5012bb6fb46804c3420080875f, type: 2}
  - m_RefCount: 1
    m_Data: {fileID: 11400000, guid: f97969137a1b7f44ca9e653bfa9ec82b, type: 2}
  - m_RefCount: 1
    m_Data: {fileID: 11400000, guid: 9a11f2323b42dbe459b4a2ac6d2dcc43, type: 2}
  - m_RefCount: 1
    m_Data: {fileID: 11400000, guid: c33a678d2954f5d46b050bbeaf37cba8, type: 2}
  - m_RefCount: 1
    m_Data: {fileID: 11400000, guid: 4fb796200845359428347654b0231808, type: 2}
  - m_RefCount: 1
    m_Data: {fileID: 11400000, guid: 140a7d63d9291214891fc3298c9c1610, type: 2}
  - m_RefCount: 1
    m_Data: {fileID: 11400000, guid: 5706c37797e88be4e9048af200ec2a77, type: 2}
  - m_RefCount: 1
    m_Data: {fileID: 11400000, guid: 624de00fea184924cb71ad8018ddabe7, type: 2}
  - m_RefCount: 1
    m_Data: {fileID: 11400000, guid: 0d87aef159131bc4aacb5ca00f667692, type: 2}
  - m_RefCount: 1
    m_Data: {fileID: 11400000, guid: 4e6d039313b160048b46f2bf697cc565, type: 2}
  - m_RefCount: 1
    m_Data: {fileID: 11400000, guid: 7adc14367f2c5cd4da9477536a2f83ca, type: 2}
  - m_RefCount: 1
    m_Data: {fileID: 11400000, guid: 0edd1ee4aafcc644f90ec2100e1129d1, type: 2}
  - m_RefCount: 1
    m_Data: {fileID: 11400000, guid: cec0ebb2c4947fa46aca7add7a09adbd, type: 2}
  - m_RefCount: 1
    m_Data: {fileID: 11400000, guid: 3a586f54e20120740a1114fad9cd8978, type: 2}
  - m_RefCount: 1
    m_Data: {fileID: 11400000, guid: d95fec40f5c753447b4f40e7e2e828a5, type: 2}
  - m_RefCount: 1
    m_Data: {fileID: 11400000, guid: 90635588286162a4b90369fecaff9d6f, type: 2}
  - m_RefCount: 1
    m_Data: {fileID: 11400000, guid: 15368e78e8243fb46bdff6126649449a, type: 2}
  - m_RefCount: 1
    m_Data: {fileID: 11400000, guid: 5283d107505bb7d4e96a036a96d8c235, type: 2}
  - m_RefCount: 1
    m_Data: {fileID: 11400000, guid: 162a038fa5bacdd4eb8e5740e4d08682, type: 2}
  - m_RefCount: 1
    m_Data: {fileID: 11400000, guid: 73ecc93b599ef2145bd674b2d37ab8d4, type: 2}
  - m_RefCount: 1
    m_Data: {fileID: 11400000, guid: 1f17c3ef01993cc4992e27d0f51c6f73, type: 2}
  - m_RefCount: 1
    m_Data: {fileID: 11400000, guid: 33989935527613c4fb8775a86e33926c, type: 2}
  m_TileSpriteArray:
  - m_RefCount: 1
    m_Data: {fileID: -990119308727001499, guid: 9b299c6cacb25c444912a1436c4c2d99, type: 3}
  - m_RefCount: 1
    m_Data: {fileID: 1504083698799571255, guid: 9b299c6cacb25c444912a1436c4c2d99, type: 3}
  - m_RefCount: 1
    m_Data: {fileID: -8227195061945067235, guid: 9b299c6cacb25c444912a1436c4c2d99, type: 3}
  - m_RefCount: 1
    m_Data: {fileID: -5929392695585291431, guid: 9b299c6cacb25c444912a1436c4c2d99, type: 3}
  - m_RefCount: 1
    m_Data: {fileID: -2465070454751944560, guid: 9b299c6cacb25c444912a1436c4c2d99, type: 3}
  - m_RefCount: 1
    m_Data: {fileID: -5930506880249969804, guid: 9b299c6cacb25c444912a1436c4c2d99, type: 3}
  - m_RefCount: 1
    m_Data: {fileID: 118783309027101539, guid: 9b299c6cacb25c444912a1436c4c2d99, type: 3}
  - m_RefCount: 1
    m_Data: {fileID: 1276216865262139982, guid: 9b299c6cacb25c444912a1436c4c2d99, type: 3}
  - m_RefCount: 1
    m_Data: {fileID: 8310950390926103699, guid: 9b299c6cacb25c444912a1436c4c2d99, type: 3}
  - m_RefCount: 1
    m_Data: {fileID: 1277707936725545305, guid: 9b299c6cacb25c444912a1436c4c2d99, type: 3}
  - m_RefCount: 1
    m_Data: {fileID: -2342885303366417055, guid: 9b299c6cacb25c444912a1436c4c2d99, type: 3}
  - m_RefCount: 1
    m_Data: {fileID: -2378883148826132272, guid: 9b299c6cacb25c444912a1436c4c2d99, type: 3}
  - m_RefCount: 1
    m_Data: {fileID: 8583631480580977212, guid: 9b299c6cacb25c444912a1436c4c2d99, type: 3}
  - m_RefCount: 1
    m_Data: {fileID: -8184257842447742388, guid: 9b299c6cacb25c444912a1436c4c2d99, type: 3}
  - m_RefCount: 1
    m_Data: {fileID: -7766170723560652918, guid: 9b299c6cacb25c444912a1436c4c2d99, type: 3}
  - m_RefCount: 1
    m_Data: {fileID: 1947119457985424567, guid: f1ac1a383a37bf34486c29352087435c, type: 3}
  - m_RefCount: 1
    m_Data: {fileID: 9019084331434506844, guid: f1ac1a383a37bf34486c29352087435c, type: 3}
  - m_RefCount: 1
    m_Data: {fileID: -8277343293751269970, guid: f1ac1a383a37bf34486c29352087435c, type: 3}
  - m_RefCount: 1
    m_Data: {fileID: 3544260631447802459, guid: f1ac1a383a37bf34486c29352087435c, type: 3}
  - m_RefCount: 1
    m_Data: {fileID: -3116244873542273036, guid: f1ac1a383a37bf34486c29352087435c, type: 3}
  - m_RefCount: 1
    m_Data: {fileID: 1276016915113357176, guid: f1ac1a383a37bf34486c29352087435c, type: 3}
  - m_RefCount: 1
    m_Data: {fileID: 7397715613701546217, guid: 9b299c6cacb25c444912a1436c4c2d99, type: 3}
  - m_RefCount: 1
    m_Data: {fileID: -6526580280903376070, guid: 9b299c6cacb25c444912a1436c4c2d99, type: 3}
  - m_RefCount: 1
    m_Data: {fileID: 6994444618150704343, guid: 9b299c6cacb25c444912a1436c4c2d99, type: 3}
  - m_RefCount: 1
    m_Data: {fileID: 6387270009084236526, guid: f1ac1a383a37bf34486c29352087435c, type: 3}
  - m_RefCount: 1
    m_Data: {fileID: 7275632282209467027, guid: f1ac1a383a37bf34486c29352087435c, type: 3}
  - m_RefCount: 1
    m_Data: {fileID: -6949940687335692792, guid: f1ac1a383a37bf34486c29352087435c, type: 3}
  - m_RefCount: 1
    m_Data: {fileID: 8074047908597030931, guid: f1ac1a383a37bf34486c29352087435c, type: 3}
  - m_RefCount: 1
    m_Data: {fileID: -4691537503504639314, guid: f1ac1a383a37bf34486c29352087435c, type: 3}
  - m_RefCount: 1
    m_Data: {fileID: 9146698590042264972, guid: 9b299c6cacb25c444912a1436c4c2d99, type: 3}
  - m_RefCount: 1
    m_Data: {fileID: 1193914683967888215, guid: 9b299c6cacb25c444912a1436c4c2d99, type: 3}
  - m_RefCount: 1
    m_Data: {fileID: 3039080920766726264, guid: 9b299c6cacb25c444912a1436c4c2d99, type: 3}
  - m_RefCount: 1
    m_Data: {fileID: 4106614369192998497, guid: f1ac1a383a37bf34486c29352087435c, type: 3}
  - m_RefCount: 1
    m_Data: {fileID: -4349138457683986220, guid: f1ac1a383a37bf34486c29352087435c, type: 3}
  - m_RefCount: 1
    m_Data: {fileID: 1569870214592278962, guid: f1ac1a383a37bf34486c29352087435c, type: 3}
  - m_RefCount: 1
    m_Data: {fileID: -41748860053788470, guid: f1ac1a383a37bf34486c29352087435c, type: 3}
  - m_RefCount: 1
    m_Data: {fileID: -5580820881759664538, guid: f1ac1a383a37bf34486c29352087435c, type: 3}
  - m_RefCount: 1
    m_Data: {fileID: 7802577669143822685, guid: f1ac1a383a37bf34486c29352087435c, type: 3}
  - m_RefCount: 1
    m_Data: {fileID: -8510111550988930174, guid: f1ac1a383a37bf34486c29352087435c, type: 3}
  - m_RefCount: 1
    m_Data: {fileID: 2044636217335340289, guid: 9b299c6cacb25c444912a1436c4c2d99, type: 3}
  - m_RefCount: 1
    m_Data: {fileID: 5007077595789679662, guid: 9b299c6cacb25c444912a1436c4c2d99, type: 3}
  - m_RefCount: 1
    m_Data: {fileID: -4920283862385276031, guid: 9b299c6cacb25c444912a1436c4c2d99, type: 3}
  - m_RefCount: 1
    m_Data: {fileID: -8488844344413893225, guid: f1ac1a383a37bf34486c29352087435c, type: 3}
  - m_RefCount: 1
    m_Data: {fileID: 9092034087193874854, guid: f1ac1a383a37bf34486c29352087435c, type: 3}
  - m_RefCount: 1
    m_Data: {fileID: -3561881069427453975, guid: f1ac1a383a37bf34486c29352087435c, type: 3}
  - m_RefCount: 1
    m_Data: {fileID: -165524118171234062, guid: f1ac1a383a37bf34486c29352087435c, type: 3}
  - m_RefCount: 1
    m_Data: {fileID: -4107955639312825706, guid: 9b299c6cacb25c444912a1436c4c2d99, type: 3}
  - m_RefCount: 1
    m_Data: {fileID: 7728074144689846663, guid: 9b299c6cacb25c444912a1436c4c2d99, type: 3}
  - m_RefCount: 1
    m_Data: {fileID: 2526815074654982945, guid: 9b299c6cacb25c444912a1436c4c2d99, type: 3}
  - m_RefCount: 1
    m_Data: {fileID: 1510795872583534060, guid: f1ac1a383a37bf34486c29352087435c, type: 3}
  - m_RefCount: 1
    m_Data: {fileID: 1940554413578133321, guid: f1ac1a383a37bf34486c29352087435c, type: 3}
  - m_RefCount: 1
    m_Data: {fileID: -3126655567708443489, guid: f1ac1a383a37bf34486c29352087435c, type: 3}
  - m_RefCount: 1
    m_Data: {fileID: -4498894146555434900, guid: f1ac1a383a37bf34486c29352087435c, type: 3}
  - m_RefCount: 1
    m_Data: {fileID: -2679776680757644774, guid: f1ac1a383a37bf34486c29352087435c, type: 3}
  - m_RefCount: 1
    m_Data: {fileID: -6177437623713830656, guid: f1ac1a383a37bf34486c29352087435c, type: 3}
  - m_RefCount: 1
    m_Data: {fileID: 1947959413183944149, guid: f1ac1a383a37bf34486c29352087435c, type: 3}
  - m_RefCount: 1
    m_Data: {fileID: -5500785544100671203, guid: 9b299c6cacb25c444912a1436c4c2d99, type: 3}
  - m_RefCount: 1
    m_Data: {fileID: -176735198477562485, guid: 9b299c6cacb25c444912a1436c4c2d99, type: 3}
  - m_RefCount: 1
    m_Data: {fileID: 686848713185814390, guid: 9b299c6cacb25c444912a1436c4c2d99, type: 3}
  - m_RefCount: 1
    m_Data: {fileID: 3031948473498817550, guid: f1ac1a383a37bf34486c29352087435c, type: 3}
  - m_RefCount: 1
    m_Data: {fileID: -3394412262967180644, guid: f1ac1a383a37bf34486c29352087435c, type: 3}
  - m_RefCount: 1
    m_Data: {fileID: 8207216086063867140, guid: f1ac1a383a37bf34486c29352087435c, type: 3}
  - m_RefCount: 1
    m_Data: {fileID: 6742135556669391769, guid: f1ac1a383a37bf34486c29352087435c, type: 3}
  - m_RefCount: 1
    m_Data: {fileID: -4319001177026117963, guid: f1ac1a383a37bf34486c29352087435c, type: 3}
  - m_RefCount: 1
    m_Data: {fileID: 3213837164921476195, guid: f1ac1a383a37bf34486c29352087435c, type: 3}
  - m_RefCount: 1
    m_Data: {fileID: 2124291062042224797, guid: 9b299c6cacb25c444912a1436c4c2d99, type: 3}
  - m_RefCount: 1
    m_Data: {fileID: 5518285015966284355, guid: 9b299c6cacb25c444912a1436c4c2d99, type: 3}
  - m_RefCount: 1
    m_Data: {fileID: 4728247384024264452, guid: 9b299c6cacb25c444912a1436c4c2d99, type: 3}
  - m_RefCount: 1
    m_Data: {fileID: -3908050686021176017, guid: f1ac1a383a37bf34486c29352087435c, type: 3}
  - m_RefCount: 1
    m_Data: {fileID: -4858588312110959394, guid: f1ac1a383a37bf34486c29352087435c, type: 3}
  - m_RefCount: 1
    m_Data: {fileID: 2176108418869935550, guid: f1ac1a383a37bf34486c29352087435c, type: 3}
  - m_RefCount: 1
    m_Data: {fileID: 3033623811905015857, guid: f1ac1a383a37bf34486c29352087435c, type: 3}
  - m_RefCount: 1
    m_Data: {fileID: -2073847146765310324, guid: 9b299c6cacb25c444912a1436c4c2d99, type: 3}
  - m_RefCount: 1
    m_Data: {fileID: -6383659153735469721, guid: 9b299c6cacb25c444912a1436c4c2d99, type: 3}
  - m_RefCount: 1
    m_Data: {fileID: -2716704285245592975, guid: 9b299c6cacb25c444912a1436c4c2d99, type: 3}
  - m_RefCount: 1
    m_Data: {fileID: 4487023333714816258, guid: f1ac1a383a37bf34486c29352087435c, type: 3}
  - m_RefCount: 1
    m_Data: {fileID: -6915864423205654173, guid: f1ac1a383a37bf34486c29352087435c, type: 3}
  - m_RefCount: 1
    m_Data: {fileID: 8474265140585571280, guid: f1ac1a383a37bf34486c29352087435c, type: 3}
  - m_RefCount: 1
    m_Data: {fileID: -4218015735609788400, guid: f1ac1a383a37bf34486c29352087435c, type: 3}
  - m_RefCount: 1
    m_Data: {fileID: -5623050671855301586, guid: 9b299c6cacb25c444912a1436c4c2d99, type: 3}
  - m_RefCount: 1
    m_Data: {fileID: 798571999788111989, guid: 9b299c6cacb25c444912a1436c4c2d99, type: 3}
  - m_RefCount: 1
    m_Data: {fileID: -7252028282165683165, guid: 9b299c6cacb25c444912a1436c4c2d99, type: 3}
  - m_RefCount: 1
    m_Data: {fileID: -8499016274931224350, guid: 9b299c6cacb25c444912a1436c4c2d99, type: 3}
  - m_RefCount: 1
    m_Data: {fileID: -5293319248015230073, guid: 9b299c6cacb25c444912a1436c4c2d99, type: 3}
  - m_RefCount: 1
    m_Data: {fileID: -7502597127955543135, guid: f1ac1a383a37bf34486c29352087435c, type: 3}
  - m_RefCount: 1
    m_Data: {fileID: 7971696886899454054, guid: f1ac1a383a37bf34486c29352087435c, type: 3}
  - m_RefCount: 1
    m_Data: {fileID: -1918595415228155771, guid: f1ac1a383a37bf34486c29352087435c, type: 3}
  - m_RefCount: 1
    m_Data: {fileID: 3122985742603172977, guid: f1ac1a383a37bf34486c29352087435c, type: 3}
  - m_RefCount: 1
    m_Data: {fileID: 4366375317780246848, guid: f1ac1a383a37bf34486c29352087435c, type: 3}
  - m_RefCount: 1
    m_Data: {fileID: 5435270646984078426, guid: f1ac1a383a37bf34486c29352087435c, type: 3}
  - m_RefCount: 1
    m_Data: {fileID: -189096374059548865, guid: f1ac1a383a37bf34486c29352087435c, type: 3}
  - m_RefCount: 1
    m_Data: {fileID: 3631185631560381419, guid: f1ac1a383a37bf34486c29352087435c, type: 3}
  - m_RefCount: 1
    m_Data: {fileID: -773731397736204555, guid: f1ac1a383a37bf34486c29352087435c, type: 3}
  - m_RefCount: 1
    m_Data: {fileID: -1503501613860420936, guid: f1ac1a383a37bf34486c29352087435c, type: 3}
  - m_RefCount: 1
    m_Data: {fileID: -5690439865084057728, guid: f1ac1a383a37bf34486c29352087435c, type: 3}
  - m_RefCount: 1
    m_Data: {fileID: -1573659645009963736, guid: f1ac1a383a37bf34486c29352087435c, type: 3}
  - m_RefCount: 1
    m_Data: {fileID: 1192302938602655290, guid: f1ac1a383a37bf34486c29352087435c, type: 3}
  - m_RefCount: 1
    m_Data: {fileID: 7675704318700981045, guid: f1ac1a383a37bf34486c29352087435c, type: 3}
  - m_RefCount: 1
    m_Data: {fileID: -4794531747358747101, guid: f1ac1a383a37bf34486c29352087435c, type: 3}
  - m_RefCount: 1
    m_Data: {fileID: 54114117149802668, guid: f1ac1a383a37bf34486c29352087435c, type: 3}
  - m_RefCount: 1
    m_Data: {fileID: -7465504118026647073, guid: f1ac1a383a37bf34486c29352087435c, type: 3}
  - m_RefCount: 1
    m_Data: {fileID: -2288624535387305711, guid: f1ac1a383a37bf34486c29352087435c, type: 3}
  - m_RefCount: 1
    m_Data: {fileID: 6358380506429797311, guid: f1ac1a383a37bf34486c29352087435c, type: 3}
  - m_RefCount: 1
    m_Data: {fileID: -1896775738594830653, guid: f1ac1a383a37bf34486c29352087435c, type: 3}
  - m_RefCount: 1
    m_Data: {fileID: -6595907360901831026, guid: f1ac1a383a37bf34486c29352087435c, type: 3}
  - m_RefCount: 1
    m_Data: {fileID: 6025426771120414415, guid: f1ac1a383a37bf34486c29352087435c, type: 3}
  - m_RefCount: 1
    m_Data: {fileID: 7472236926219913571, guid: f1ac1a383a37bf34486c29352087435c, type: 3}
  - m_RefCount: 1
    m_Data: {fileID: 6410632171222080088, guid: f1ac1a383a37bf34486c29352087435c, type: 3}
  - m_RefCount: 1
    m_Data: {fileID: -3144493612875755829, guid: f1ac1a383a37bf34486c29352087435c, type: 3}
  - m_RefCount: 1
    m_Data: {fileID: -8236973135019218483, guid: f1ac1a383a37bf34486c29352087435c, type: 3}
  - m_RefCount: 1
    m_Data: {fileID: 8031246995570197784, guid: f1ac1a383a37bf34486c29352087435c, type: 3}
  - m_RefCount: 1
    m_Data: {fileID: 3575842042948658371, guid: f1ac1a383a37bf34486c29352087435c, type: 3}
  - m_RefCount: 1
    m_Data: {fileID: 6875446292438248510, guid: f1ac1a383a37bf34486c29352087435c, type: 3}
  - m_RefCount: 1
    m_Data: {fileID: -837813247946590863, guid: f1ac1a383a37bf34486c29352087435c, type: 3}
  - m_RefCount: 1
    m_Data: {fileID: 8729726842171907365, guid: f1ac1a383a37bf34486c29352087435c, type: 3}
  - m_RefCount: 1
    m_Data: {fileID: -964268487688491331, guid: f1ac1a383a37bf34486c29352087435c, type: 3}
  - m_RefCount: 1
    m_Data: {fileID: 7054702437079160464, guid: f1ac1a383a37bf34486c29352087435c, type: 3}
  - m_RefCount: 1
    m_Data: {fileID: -4979020444189382025, guid: f1ac1a383a37bf34486c29352087435c, type: 3}
  - m_RefCount: 1
    m_Data: {fileID: 2233181356254686728, guid: f1ac1a383a37bf34486c29352087435c, type: 3}
  - m_RefCount: 1
    m_Data: {fileID: -3754490414935352970, guid: f1ac1a383a37bf34486c29352087435c, type: 3}
  - m_RefCount: 1
    m_Data: {fileID: -8638580351052305460, guid: f1ac1a383a37bf34486c29352087435c, type: 3}
  - m_RefCount: 1
    m_Data: {fileID: 5358963854916663975, guid: f1ac1a383a37bf34486c29352087435c, type: 3}
  - m_RefCount: 1
    m_Data: {fileID: -5279810998992384470, guid: f1ac1a383a37bf34486c29352087435c, type: 3}
  - m_RefCount: 1
    m_Data: {fileID: -951538665276321423, guid: f1ac1a383a37bf34486c29352087435c, type: 3}
  - m_RefCount: 1
    m_Data: {fileID: -8618224483310450548, guid: f1ac1a383a37bf34486c29352087435c, type: 3}
  - m_RefCount: 1
    m_Data: {fileID: 4379329034887140437, guid: f1ac1a383a37bf34486c29352087435c, type: 3}
  - m_RefCount: 1
    m_Data: {fileID: 7461374090061933719, guid: f1ac1a383a37bf34486c29352087435c, type: 3}
  - m_RefCount: 1
    m_Data: {fileID: -923938995664315266, guid: f1ac1a383a37bf34486c29352087435c, type: 3}
  - m_RefCount: 1
    m_Data: {fileID: -4912440524543851709, guid: f1ac1a383a37bf34486c29352087435c, type: 3}
  - m_RefCount: 1
    m_Data: {fileID: -115530371289130693, guid: f1ac1a383a37bf34486c29352087435c, type: 3}
  - m_RefCount: 1
    m_Data: {fileID: -1936499267308027771, guid: f1ac1a383a37bf34486c29352087435c, type: 3}
  m_TileMatrixArray:
  - m_RefCount: 131
    m_Data:
      e00: 1
      e01: 0
      e02: 0
      e03: 0
      e10: 0
      e11: 1
      e12: 0
      e13: 0
      e20: 0
      e21: 0
      e22: 1
      e23: 0
      e30: 0
      e31: 0
      e32: 0
      e33: 1
  m_TileColorArray:
  - m_RefCount: 131
    m_Data: {r: 1, g: 1, b: 1, a: 1}
  m_TileObjectToInstantiateArray: []
  m_AnimationFrameRate: 1
  m_Color: {r: 1, g: 1, b: 1, a: 1}
  m_Origin: {x: -8, y: -11, z: 0}
  m_Size: {x: 13, y: 14, z: 1}
  m_TileAnchor: {x: 0.5, y: 0.5, z: 0}
  m_TileOrientation: 0
  m_TileOrientationMatrix:
    e00: 1
    e01: 0
    e02: 0
    e03: 0
    e10: 0
    e11: 1
    e12: 0
    e13: 0
    e20: 0
    e21: 0
    e22: 1
    e23: 0
    e30: 0
    e31: 0
    e32: 0
    e33: 1
--- !u!483693784 &4457181572212444150
TilemapRenderer:
  m_ObjectHideFlags: 0
  m_CorrespondingSourceObject: {fileID: 0}
  m_PrefabInstance: {fileID: 0}
  m_PrefabAsset: {fileID: 0}
  m_GameObject: {fileID: 3033826813543284886}
  m_Enabled: 1
  m_CastShadows: 0
  m_ReceiveShadows: 0
  m_DynamicOccludee: 0
  m_MotionVectors: 1
  m_LightProbeUsage: 0
  m_ReflectionProbeUsage: 0
  m_RayTracingMode: 0
  m_RayTraceProcedural: 0
  m_RenderingLayerMask: 1
  m_RendererPriority: 0
  m_Materials:
  - {fileID: 10754, guid: 0000000000000000f000000000000000, type: 0}
  m_StaticBatchInfo:
    firstSubMesh: 0
    subMeshCount: 0
  m_StaticBatchRoot: {fileID: 0}
  m_ProbeAnchor: {fileID: 0}
  m_LightProbeVolumeOverride: {fileID: 0}
  m_ScaleInLightmap: 1
  m_ReceiveGI: 1
  m_PreserveUVs: 0
  m_IgnoreNormalsForChartDetection: 0
  m_ImportantGI: 0
  m_StitchLightmapSeams: 1
  m_SelectedEditorRenderState: 0
  m_MinimumChartSize: 4
  m_AutoUVMaxDistance: 0.5
  m_AutoUVMaxAngle: 89
  m_LightmapParameters: {fileID: 0}
  m_SortingLayerID: 0
  m_SortingLayer: 0
  m_SortingOrder: 0
  m_ChunkSize: {x: 32, y: 32, z: 32}
  m_ChunkCullingBounds: {x: 0, y: 0, z: 0}
  m_MaxChunkCount: 16
  m_MaxFrameAge: 16
  m_SortOrder: 0
  m_Mode: 0
  m_DetectChunkCullingBounds: 0
  m_MaskInteraction: 0
--- !u!114 &525895651766161784
MonoBehaviour:
  m_ObjectHideFlags: 0
  m_CorrespondingSourceObject: {fileID: 0}
  m_PrefabInstance: {fileID: 0}
  m_PrefabAsset: {fileID: 0}
  m_GameObject: {fileID: 0}
  m_Enabled: 1
  m_EditorHideFlags: 0
  m_Script: {fileID: 12395, guid: 0000000000000000e000000000000000, type: 0}
  m_Name: Palette Settings
  m_EditorClassIdentifier: 
  cellSizing: 0
